t,x,y,v,v_{y},v_{x},a
0.000,-43.74,16.90,,,,
0.010,-43.29,16.54,59.93,-37.38,46.84,
0.020,-42.80,16.15,62.69,-39.28,48.85,351.9
0.030,-42.31,15.76,66.12,-41.12,51.78,391.7
0.040,-41.77,15.33,70.83,-42.25,56.85,609.0
0.050,-41.18,14.91,76.99,-44.44,62.87,542.7
0.060,-40.51,14.44,82.40,-47.02,67.67,383.4
0.070,-39.82,13.97,83.89,-49.24,67.92,342.7
0.080,-39.15,13.45,88.74,-50.83,72.74,420.6
0.090,-38.37,12.95,93.25,-52.72,76.91,387.2
0.100,-37.61,12.40,95.59,-54.73,78.37,428.4
0.110,-36.80,11.86,101.1,-53.70,85.66,520.0
0.120,-35.90,11.33,104.9,-54.25,89.74,357.5
0.130,-35.01,10.77,107.1,-55.78,91.47,227.5
0.140,-34.07,10.21,109.9,-56.33,94.40,489.0
0.150,-33.12,9.647,115.9,-58.98,99.76,512.4
0.160,-32.08,9.030,121.1,-59.31,105.5,369.6
0.170,-31.01,8.461,120.1,-55.66,106.4,556.6
0.180,-29.95,7.917,124.0,-52.02,112.5,891.5
0.190,-28.76,7.421,131.9,-46.91,123.2,349.8
0.200,-27.48,6.979,131.3,-51.58,120.8,254.4
0.210,-26.34,6.389,130.3,-54.78,118.2,272.6
0.220,-25.12,5.883,136.4,-48.31,127.6,707.1
0.230,-23.79,5.423,137.2,-45.04,129.6,339.6
0.240,-22.52,4.983,138.2,-44.28,130.9,308.0
0.250,-21.17,4.537,140.6,-40.63,134.6,435.0
0.260,-19.83,4.170,142.1,-37.98,136.9,355.2
0.270,-18.44,3.778,146.8,-38.68,141.6,382.8
0.280,-17.00,3.396,146.9,-33.45,143.1,449.9
0.290,-15.57,3.109,148.2,-29.47,145.2,457.2
0.300,-14.10,2.807,149.0,-26.13,146.7,248.2
0.310,-12.64,2.586,147.7,-23.30,145.9,728.2
0.320,-11.18,2.341,141.7,-15.53,140.8,455.6
0.330,-9.823,2.276,152.3,-18.65,151.2,479.4
0.340,-8.154,1.968,158.5,-24.36,156.6,427.2
0.350,-6.691,1.788,154.0,-18.31,152.9,668.2
0.360,-5.096,1.602,156.0,-13.76,155.4,484.9
0.370,-3.584,1.513,152.8,-7.550,152.6,559.4
0.380,-2.045,1.451,153.4,-3.686,153.4,317.6
0.390,-0.516,1.439,152.8,-0.740,152.8,363.6
0.400,1.012,1.436,153.1,2.864,153.0,365.5
0.410,2.544,1.497,153.3,7.258,153.1,326.3
0.420,4.075,1.581,151.7,8.960,151.5,337.8
0.430,5.574,1.676,150.6,12.97,150.1,391.9
0.440,7.076,1.840,149.0,16.58,148.0,739.7
0.450,8.534,2.007,153.3,25.79,151.1,246.4
0.460,10.10,2.356,148.5,22.82,146.7,366.3
0.470,11.47,2.464,141.3,17.61,140.2,337.4
0.480,12.90,2.708,145.1,27.14,142.5,815.0
0.490,14.32,3.007,144.2,33.21,140.3,430.2
0.500,15.71,3.373,142.3,35.21,137.9,367.4
0.510,17.08,3.711,139.2,36.10,134.4,331.6
0.520,18.40,4.095,138.0,39.88,132.2,252.0
0.530,19.72,4.509,136.6,39.34,130.8,218.7
0.540,21.01,4.881,134.5,40.84,128.2,521.0
0.550,22.28,5.326,131.6,46.77,123.0,563.1
0.560,23.47,5.817,127.9,48.20,118.5,309.5
0.570,24.65,6.290,126.3,46.56,117.4,351.8
0.580,25.82,6.748,123.0,49.95,112.4,703.8
0.590,26.90,7.289,121.7,57.85,107.0,317.0
0.600,27.96,7.905,118.7,52.59,106.4,369.9
0.610,29.03,8.340,114.8,47.45,104.5,316.6
0.620,30.05,8.854,113.0,52.05,100.3,444.4
0.630,31.04,9.381,108.5,50.17,96.16,385.5
0.640,31.98,9.857,104.7,47.92,93.10,329.5
0.650,32.90,10.34,102.7,49.41,90.03,309.4
0.660,33.78,10.85,100.3,50.16,86.85,385.3
0.670,34.64,11.34,96.13,48.82,82.81,328.2
0.680,35.43,11.82,93.00,46.61,80.47,329.6
0.690,36.24,12.28,90.51,46.49,77.65,506.5
0.700,36.99,12.75,83.76,46.15,69.90,490.4
0.710,37.64,13.20,80.65,44.89,67.01,348.7
0.720,38.33,13.65,78.81,41.19,67.19,292.4
0.730,38.99,14.02,74.03,39.58,62.56,425.3
0.740,39.58,14.44,70.60,39.26,58.67,451.2
0.750,40.16,14.81,65.91,36.96,54.57,416.8
0.760,40.67,15.18,61.93,34.61,51.35,394.4
0.770,41.19,15.50,58.57,32.84,48.49,408.7
0.780,41.64,15.84,54.39,33.75,42.65,420.1
0.790,42.04,16.17,50.19,28.85,41.07,456.4
0.800,42.46,16.41,46.09,24.40,39.10,371.3
0.810,42.82,16.66,42.94,23.91,35.66,496.4
0.820,43.17,16.89,38.09,23.26,30.16,390.5
0.830,43.43,17.13,34.41,18.79,28.82,466.6
0.840,43.75,17.27,30.09,17.27,24.64,489.9
0.850,43.92,17.47,23.76,15.97,17.59,596.4
0.860,44.10,17.59,18.97,11.27,15.26,396.1
0.870,44.22,17.70,15.68,10.63,11.53,384.6
0.880,44.33,17.80,12.12,5.897,10.59,381.9
0.890,44.44,17.82,7.655,5.287,5.536,428.3
0.900,44.44,17.91,5.661,5.570,1.013,378.3
0.910,44.46,17.93,0.471,0.447,-0.149,432.4
0.920,44.44,17.91,5.232,-0.488,-5.209,430.6
0.930,44.35,17.92,8.291,-5.208,-6.451,480.3
0.940,44.31,17.81,13.34,-10.57,-8.135,492.4
0.950,44.19,17.71,18.49,-10.59,-15.15,564.7
0.960,44.01,17.60,22.55,-11.38,-19.47,523.6
0.970,43.80,17.48,28.25,-14.40,-24.30,386.6
0.980,43.52,17.31,31.04,-17.94,-25.32,356.6
0.990,43.29,17.12,33.24,-20.31,-26.32,364.9
1.000,43.00,16.90,39.02,-23.31,-31.30,421.1
1.010,42.67,16.65,41.65,-24.51,-33.67,353.0
1.020,42.32,16.41,45.17,-25.20,-37.49,405.9
1.030,41.92,16.15,50.24,-28.20,-41.58,468.8
1.040,41.49,15.85,54.29,-31.26,-44.39,467.3
1.050,41.03,15.52,59.44,-34.30,-48.54,363.8
1.060,40.52,15.16,62.14,-35.38,-51.08,413.9
1.070,40.01,14.82,66.24,-36.16,-55.50,425.9
1.080,39.41,14.44,71.69,-39.25,-59.99,391.3
1.090,38.81,14.03,73.36,-42.26,-59.96,330.9
1.100,38.21,13.60,77.75,-42.69,-64.98,371.2
1.110,37.51,13.18,81.41,-43.44,-68.86,348.0
1.120,36.83,12.73,83.66,-46.03,-69.86,355.3
1.130,36.11,12.26,88.84,-46.69,-75.59,422.8
1.140,35.32,11.79,91.51,-46.28,-78.94,368.3
1.150,34.53,11.33,95.24,-50.20,-80.93,381.2
1.160,33.70,10.79,100.1,-51.43,-85.85,455.1
1.170,32.82,10.30,102.0,-47.58,-90.25,371.1
1.180,31.90,9.838,104.0,-47.91,-92.36,257.5
1.190,30.97,9.345,107.1,-50.61,-94.40,404.1
1.200,30.01,8.826,112.1,-51.73,-99.40,480.0
1.210,28.98,8.311,113.5,-46.48,-103.6,545.0
1.220,27.94,7.896,120.7,-52.78,-108.5,379.2
1.230,26.81,7.255,124.1,-57.14,-110.1,211.1
1.240,25.74,6.753,121.6,-50.62,-110.6,537.5
1.250,24.60,6.242,123.9,-48.27,-114.1,432.3
1.260,23.45,5.788,126.3,-46.04,-117.6,416.5
1.270,22.25,5.322,130.3,-45.27,-122.2,442.7
1.280,21.01,4.883,129.7,-39.60,-123.5,386.8
1.290,19.78,4.530,132.2,-38.05,-126.6,317.4
1.300,18.48,4.122,136.5,-39.88,-130.6,334.4
1.310,17.16,3.732,137.1,-35.55,-132.5,474.9
1.320,15.83,3.411,139.5,-31.37,-136.0,401.9
1.330,14.45,3.105,141.5,-29.91,-138.3,257.4
1.340,13.06,2.813,141.5,-27.51,-138.8,389.7
1.350,11.67,2.554,140.5,-22.26,-138.7,546.9
1.360,10.29,2.368,145.2,-17.97,-144.1,262.3
1.370,8.787,2.195,147.0,-19.58,-145.7,189.6
1.380,7.376,1.976,145.3,-16.94,-144.3,404.9
1.390,5.901,1.856,144.7,-10.66,-144.3,398.2
1.400,4.490,1.763,144.0,-9.368,-143.7,229.6
1.410,3.027,1.669,146.9,-6.826,-146.7,362.5
1.420,1.555,1.626,146.5,-2.257,-146.4,370.4
1.430,9.808E-2,1.624,146.3,0.645,-146.3,163.3
1.440,-1.370,1.639,145.9,0.949,-145.9,201.4
1.450,-2.820,1.642,145.2,3.802,-145.2,317.8
1.460,-4.273,1.715,146.5,8.238,-146.3,518.8
1.470,-5.746,1.807,148.9,12.98,-148.3,685.0
1.480,-7.239,1.975,141.5,20.04,-140.1,327.8
1.490,-8.548,2.208,142.2,19.61,-140.8,132.9
1.500,-10.06,2.367,143.9,17.93,-142.8,93.48
1.510,-11.40,2.567,138.8,22.25,-137.0,452.3
1.520,-12.80,2.812,140.4,24.55,-138.2,178.1
1.530,-14.17,3.058,139.4,25.32,-137.1,257.1
1.540,-15.54,3.318,137.4,27.62,-134.6,315.9
1.550,-16.86,3.610,135.8,30.42,-132.4,392.6
1.560,-18.19,3.927,135.3,34.01,-131.0,311.9
1.570,-19.48,4.290,132.9,35.72,-128.0,340.5
1.580,-20.75,4.641,130.3,36.53,-125.1,419.7
1.590,-21.98,5.021,127.2,40.00,-120.8,386.1
1.600,-23.16,5.441,124.1,40.03,-117.5,173.6
1.610,-24.33,5.821,124.5,40.46,-117.8,305.8
1.620,-25.52,6.250,120.9,43.20,-113.0,560.6
1.630,-26.59,6.685,117.6,47.27,-107.7,401.5
1.640,-27.67,7.196,116.2,46.74,-106.4,191.6
1.650,-28.72,7.620,113.1,45.62,-103.5,421.8
1.660,-29.74,8.108,109.6,48.21,-98.45,443.7
1.670,-30.69,8.584,105.4,47.49,-94.07,399.3
1.680,-31.62,9.058,102.7,47.17,-91.28,331.5
1.690,-32.51,9.528,100.3,49.17,-87.41,438.2
1.700,-33.37,10.04,96.81,49.85,-82.98,386.8
1.710,-34.17,10.52,92.58,47.87,-79.23,400.9
1.720,-34.95,11.00,89.32,46.56,-76.22,358.5
1.730,-35.70,11.46,85.45,45.83,-72.12,365.0
1.740,-36.40,11.92,82.49,45.22,-68.99,494.3
1.750,-37.08,12.36,76.17,41.58,-63.82,329.9
1.760,-37.67,12.75,74.31,41.41,-61.70,459.8
1.770,-38.31,13.19,69.91,40.11,-57.26,428.9
1.780,-38.82,13.55,63.19,36.46,-51.61,535.9
1.790,-39.34,13.92,60.94,35.26,-49.71,228.2
1.800,-39.81,14.25,57.67,33.47,-46.96,246.5
1.810,-40.28,14.59,56.52,32.80,-46.04,420.9
1.820,-40.73,14.91,49.85,29.21,-40.39,678.4
1.830,-41.09,15.17,42.05,26.26,-32.84,559.4
1.840,-41.39,15.44,39.02,23.65,-31.04,248.0
1.850,-41.71,15.64,37.45,21.33,-30.78,191.6
1.860,-42.01,15.86,35.43,21.32,-28.29,498.4
1.870,-42.28,16.07,28.20,17.30,-22.27,652.8
1.880,-42.45,16.21,21.05,12.75,-16.75,531.1
1.890,-42.61,16.33,18.29,10.95,-14.65,271.6
1.900,-42.74,16.43,15.72,10.45,-11.74,544.0
1.910,-42.85,16.53,8.315,5.859,-5.900,308.3
1.920,-42.86,16.54,7.120,4.571,-5.460,238.6
1.930,-42.96,16.63,6.876,5.341,-4.331,238.8
1.940,-42.95,16.65,1.259,1.084,0.640,757.6
1.950,-42.94,16.65,6.947,-4.595,5.209,358.8
1.960,-42.84,16.56,9.020,-6.066,6.676,328.6
1.970,-42.81,16.53,10.62,-6.788,8.172,371.6
1.980,-42.68,16.42,18.36,-11.42,14.38,801.8
1.990,-42.52,16.30,25.64,-15.83,20.17,341.8
2.000,-42.28,16.11,26.99,-16.64,21.24,362.0
2.010,-42.10,15.97,30.00,-18.49,23.63,323.5
2.020,-41.81,15.74,36.10,-22.76,28.02,469.1
2.030,-41.54,15.51,37.77,-23.29,29.74,248.4
2.040,-41.21,15.27,41.64,-24.99,33.30,560.9
2.050,-40.87,15.01,48.18,-28.89,38.56,655.5
2.060,-40.44,14.69,55.71,-32.70,45.10,515.8
2.070,-39.97,14.36,58.32,-34.08,47.32,173.9
2.080,-39.49,14.01,58.90,-34.79,47.53,211.1
2.090,-39.02,13.66,62.11,-35.96,50.64,537.6
2.100,-38.48,13.29,69.71,-39.69,57.31,431.2
2.110,-37.87,12.87,71.82,-40.36,59.41,391.9
2.120,-37.29,12.49,75.15,-41.09,62.92,389.8
2.130,-36.61,12.04,81.51,-44.85,68.06,471.6
2.140,-35.93,11.59,83.64,-45.70,70.05,221.6
2.150,-35.21,11.13,85.97,-45.74,72.79,259.1
2.160,-34.48,10.67,88.14,-46.38,74.95,337.4
2.170,-33.71,10.20,92.18,-47.02,79.28,565.8
2.180,-32.89,9.733,98.70,-48.06,86.21,425.4
2.190,-31.99,9.242,101.5,-50.02,88.27,272.8
2.200,-31.12,8.733,102.8,-50.05,89.79,335.1
2.210,-30.19,8.241,106.8,-47.79,95.54,706.2
2.220,-29.21,7.777,111.0,-43.78,102.0,471.7
2.230,-28.15,7.365,115.2,-45.54,105.8,158.4
2.240,-27.10,6.866,114.5,-47.55,104.1,177.9
2.250,-26.07,6.414,116.9,-44.20,108.2,467.1
2.260,-24.93,5.982,122.5,-43.92,114.4,393.8
2.270,-23.78,5.536,123.0,-42.85,115.3,297.2
2.280,-22.63,5.125,124.7,-39.50,118.3,400.1
2.290,-21.42,4.746,126.2,-36.42,120.8,310.7
2.300,-20.21,4.397,125.7,-34.12,121.0,329.2
2.310,-19.00,4.064,130.6,-33.45,126.2,368.1
2.320,-17.69,3.728,133.7,-32.63,129.6,336.0
2.330,-16.40,3.411,132.8,-28.78,129.7,260.0
2.340,-15.09,3.152,135.4,-27.24,132.6,307.4
2.350,-13.75,2.866,135.6,-24.93,133.3,226.9
2.360,-12.43,2.654,135.9,-21.92,134.1,536.7
2.370,-11.07,2.428,133.1,-16.09,132.1,396.5
2.380,-9.785,2.332,139.7,-16.16,138.8,132.1
2.390,-8.294,2.105,140.9,-19.50,139.5,272.1
2.400,-6.994,1.942,138.9,-17.45,137.8,317.8
2.410,-5.538,1.756,143.7,-14.54,143.0,504.0
2.420,-4.135,1.651,140.2,-7.336,140.0,524.5
2.430,-2.738,1.609,141.1,-3.976,141.0,279.9
2.440,-1.315,1.572,142.7,-2.758,142.7,217.6
2.450,0.116,1.554,142.0,0.241,142.0,346.3
2.460,1.525,1.576,140.0,3.913,140.0,177.7
2.470,2.916,1.632,141.4,4.175,141.4,240.2
2.480,4.353,1.660,139.7,7.100,139.5,386.5
2.490,5.707,1.774,136.9,12.43,136.4,405.7
2.500,7.080,1.909,138.0,14.16,137.3,748.7
2.510,8.452,2.057,140.0,25.83,137.6,73.73
2.520,9.832,2.425,138.2,20.65,136.7,198.5
2.530,11.19,2.470,135.1,15.67,134.2,250.8
2.540,12.52,2.739,134.3,24.54,132.0,619.1
2.550,13.83,2.961,132.7,24.84,130.4,236.2
2.560,15.12,3.236,131.3,28.12,128.2,478.0
2.570,16.39,3.524,128.1,31.51,124.2,463.6
2.580,17.61,3.866,123.6,32.20,119.3,448.8
2.590,18.78,4.168,125.1,37.46,119.4,224.3
2.600,19.99,4.615,124.3,38.91,118.0,249.3
2.610,21.14,4.946,118.9,35.94,113.4,403.8
2.620,22.26,5.334,118.1,41.45,110.6,453.6
2.630,23.35,5.775,115.3,43.03,107.0,379.9
2.640,24.40,6.194,111.8,42.73,103.3,375.1
2.650,25.42,6.630,108.5,43.31,99.47,323.7
2.660,26.39,7.061,108.1,45.98,97.81,378.3
2.670,27.37,7.549,109.5,50.81,96.95,259.4
2.680,28.33,8.077,103.8,46.60,92.72,541.6
2.690,29.23,8.481,97.46,41.68,88.09,349.3
2.700,30.09,8.911,97.28,44.82,86.35,341.4
2.710,30.95,9.378,93.94,44.96,82.48,278.8
2.720,31.74,9.810,90.44,42.33,79.93,439.4
2.730,32.55,10.22,86.57,41.69,75.87,393.1
2.740,33.26,10.64,81.49,40.31,70.82,428.7
2.750,33.97,11.03,79.43,40.32,68.43,326.9
2.760,34.63,11.45,75.33,39.65,64.05,326.5
2.770,35.25,11.82,72.32,35.96,62.75,374.8
2.780,35.88,12.17,68.91,34.22,59.81,391.5
2.790,36.44,12.51,64.39,34.75,54.21,393.1
2.800,36.97,12.86,62.06,33.98,51.94,251.9
2.810,37.48,13.19,59.54,32.33,49.99,350.8
2.820,37.97,13.51,55.47,29.28,47.12,402.8
2.830,38.43,13.77,51.21,27.57,43.16,537.3
2.840,38.83,14.06,45.77,27.41,36.66,453.4
2.850,39.16,14.32,41.75,24.68,33.68,412.8
2.860,39.50,14.56,39.21,20.52,33.41,387.4
2.870,39.83,14.73,33.76,18.87,27.99,490.8
2.880,40.06,14.93,29.14,16.99,23.67,358.5
2.890,40.30,15.07,26.69,13.80,22.85,365.5
2.900,40.52,15.21,22.51,14.31,17.38,389.2
2.910,40.65,15.36,18.24,9.450,15.60,351.0
2.920,40.83,15.40,16.46,6.698,15.04,304.5
2.930,40.95,15.49,12.33,7.885,9.479,409.4
2.940,41.02,15.56,7.970,3.026,7.373,449.5
2.950,41.10,15.55,3.566,1.541,3.215,365.6
2.960,41.09,15.59,0.159,9.006E-2,0.131,416.4
2.970,41.10,15.55,4.228,-3.170,-2.797,455.3
2.980,41.03,15.52,9.495,-4.865,-8.153,347.1
2.990,40.94,15.46,11.19,-7.058,-8.681,349.2
3.000,40.86,15.38,15.42,-8.678,-12.75,437.2
3.010,40.68,15.28,21.10,-11.75,-17.52,492.3
3.020,40.51,15.15,24.54,-13.77,-20.31,332.6
3.030,40.28,15.01,27.87,-16.32,-22.59,358.3
3.040,40.05,14.82,30.99,-20.25,-23.47,426.6
3.050,39.81,14.60,36.21,-22.61,-28.29,506.3
3.060,39.49,14.37,41.07,-23.77,-33.50,463.5
3.070,39.14,14.13,44.60,-24.93,-36.98,329.4
3.080,38.75,13.87,47.31,-25.19,-40.04,338.2
3.090,38.33,13.62,50.87,-27.23,-42.96,350.8
3.100,37.89,13.32,54.82,-29.89,-45.96,492.2
3.110,37.42,13.03,59.99,-30.60,-51.60,336.5
3.120,36.86,12.71,62.50,-34.52,-52.11,389.3
3.130,36.37,12.34,65.48,-38.02,-53.32,415.0
3.140,35.79,11.95,71.89,-38.99,-60.40,504.1
3.150,35.17,11.56,72.89,-36.61,-63.04,322.6
3.160,34.53,11.22,76.41,-38.05,-66.26,332.7
3.170,33.84,10.79,81.05,-41.84,-69.41,346.8
3.180,33.14,10.38,82.35,-41.71,-71.01,306.5
3.190,32.42,9.960,85.91,-41.36,-75.31,404.1
3.200,31.64,9.556,89.35,-40.56,-79.61,380.1
3.210,30.83,9.149,92.98,-43.31,-82.28,397.8
3.220,29.99,8.690,97.54,-44.56,-86.77,611.1
3.230,29.09,8.258,97.32,-34.69,-90.93,384.0
3.240,28.17,7.996,102.9,-42.68,-93.63,668.7
3.250,27.22,7.404,111.5,-52.64,-98.26,459.6
3.260,26.21,6.944,110.3,-45.44,-100.5,491.0
3.270,25.21,6.496,111.3,-44.74,-101.9,239.8
3.280,24.17,6.049,112.0,-41.86,-103.9,298.1
3.290,23.13,5.658,113.8,-40.75,-106.3,418.3
3.300,22.04,5.234,119.3,-40.59,-112.2,445.6
3.310,20.89,4.847,119.3,-35.03,-114.1,388.5
3.320,19.76,4.533,121.9,-34.57,-116.9,263.7
3.330,18.55,4.155,124.9,-34.22,-120.1,209.4
3.340,17.36,3.849,124.2,-32.20,-120.0,239.8
3.350,16.15,3.511,126.8,-31.46,-122.8,336.5
3.360,14.90,3.219,128.3,-27.15,-125.4,303.1
3.370,13.64,2.968,129.5,-26.57,-126.8,187.6
3.380,12.37,2.688,130.8,-25.79,-128.3,745.7
3.390,11.08,2.452,129.6,-12.53,-128.9,315.6
3.400,9.791,2.437,133.4,-16.66,-132.4,240.9
3.410,8.431,2.119,135.4,-23.35,-133.4,89.51
3.420,7.123,1.970,133.1,-13.23,-132.5,669.1
3.430,5.782,1.855,133.6,-10.85,-133.2,184.4
3.440,4.459,1.753,133.0,-9.704,-132.6,238.8
3.450,3.129,1.661,134.4,-6.544,-134.2,388.9
3.460,1.775,1.622,136.1,-2.180,-136.1,302.8
3.470,0.407,1.617,135.5,-0.503,-135.5,211.8
3.480,-0.934,1.612,134.7,1.456,-134.6,147.5
3.490,-2.286,1.646,135.3,3.007,-135.3,189.8
3.500,-3.640,1.672,135.7,4.463,-135.6,338.5
3.510,-4.998,1.735,136.1,9.833,-135.8,461.2
3.520,-6.355,1.869,134.4,14.07,-133.7,735.6
3.530,-7.672,2.017,133.0,22.51,-131.0,208.8
3.540,-8.976,2.319,131.1,18.51,-129.8,230.9
3.550,-10.27,2.387,129.9,12.88,-129.2,137.2
3.560,-11.56,2.577,129.2,21.10,-127.5,513.9
3.570,-12.82,2.809,127.1,22.36,-125.2,189.6
3.580,-14.06,3.024,127.7,23.49,-125.5,200.3
3.590,-15.33,3.279,124.7,24.55,-122.3,322.9
3.600,-16.51,3.515,121.8,26.35,-118.9,283.4
3.610,-17.71,3.806,122.3,29.09,-118.8,261.2
3.620,-18.89,4.097,121.2,30.76,-117.3,351.1
3.630,-20.05,4.421,118.0,33.26,-113.3,368.7
3.640,-21.15,4.762,115.4,34.58,-110.1,315.7
3.650,-22.25,5.113,114.0,35.69,-108.3,267.5
3.660,-23.32,5.476,110.5,35.83,-104.6,243.1
3.670,-24.34,5.829,109.4,36.20,-103.2,274.6
3.680,-25.38,6.200,106.1,35.52,-100.00,424.7
3.690,-26.34,6.539,101.5,37.58,-94.31,379.3
3.700,-27.27,6.952,105.1,43.19,-95.83,307.1
3.710,-28.26,7.403,100.1,41.03,-91.34,337.7
3.720,-29.09,7.772,94.80,39.90,-86.00,519.1
3.730,-29.98,8.201,93.53,41.83,-83.66,263.6
3.740,-30.77,8.609,88.80,40.56,-79.00,450.0
3.750,-31.56,9.012,86.13,40.25,-76.14,276.2
3.760,-32.29,9.414,83.55,41.37,-72.59,378.0
3.770,-33.01,9.840,80.01,39.61,-69.52,540.8
3.780,-33.68,10.21,72.14,35.70,-62.69,528.6
3.790,-34.27,10.55,68.81,34.97,-59.26,287.9
3.800,-34.86,10.91,67.71,34.91,-58.02,327.7
3.810,-35.43,11.25,62.52,33.53,-52.77,266.0
3.820,-35.92,11.58,61.71,33.70,-51.69,142.4
3.830,-36.46,11.93,61.44,33.39,-51.58,518.5
3.840,-36.95,12.24,51.18,28.29,-42.64,840.2
3.850,-37.31,12.49,43.10,24.28,-35.61,485.4
3.860,-37.66,12.73,42.31,23.43,-35.23,160.8
3.870,-38.02,12.96,40.45,23.42,-32.98,142.9
3.880,-38.32,13.20,39.24,23.37,-31.52,380.4
3.890,-38.65,13.43,34.11,19.97,-27.66,402.8
3.900,-38.88,13.60,29.50,16.69,-24.32,461.2
3.910,-39.13,13.76,26.58,15.11,-21.86,383.4
3.920,-39.31,13.90,20.79,12.19,-16.84,462.9
3.930,-39.47,14.01,17.66,10.56,-14.15,613.9
3.940,-39.60,14.11,9.400,5.425,-7.676,351.7
3.950,-39.63,14.11,8.177,5.374,-6.163,298.0
3.960,-39.72,14.22,7.400,5.805,-4.590,271.8
3.970,-39.72,14.23,0.841,0.722,0.432,427.2
3.980,-39.71,14.23,0.577,0.114,0.566,434.9
3.990,-39.71,14.23,7.539,-4.530,6.026,353.3
4.000,-39.59,14.14,10.10,-5.657,8.365,450.5
4.010,-39.54,14.12,13.19,-7.418,10.90,292.1
4.020,-39.37,13.99,18.97,-11.65,14.97,514.0
4.030,-39.24,13.89,21.27,-12.53,17.19,452.6
4.040,-39.03,13.74,28.90,-16.56,23.69,368.2
4.050,-38.77,13.55,29.43,-16.72,24.21,332.4
4.060,-38.54,13.41,33.20,-18.31,27.70,458.6
4.070,-38.21,13.19,40.79,-22.40,34.09,469.9
4.080,-37.86,12.96,41.84,-23.12,34.87,454.5
4.090,-37.51,12.73,48.82,-27.59,40.27,315.4
4.100,-37.06,12.41,50.74,-28.32,42.10,415.8
4.110,-36.67,12.16,53.67,-29.72,44.69,301.4
4.120,-36.16,11.81,59.80,-32.74,50.04,282.6
4.130,-35.67,11.50,57.78,-31.15,48.67,155.5
4.140,-35.19,11.19,61.58,-32.32,52.41,420.2
4.150,-34.62,10.86,67.14,-34.44,57.63,556.0
4.160,-34.04,10.50,71.96,-37.41,61.47,403.6
4.170,-33.39,10.11,75.92,-38.54,65.42,411.9
4.180,-32.73,9.732,79.31,-39.64,68.70,362.6
4.190,-32.02,9.317,83.34,-40.54,72.81,389.2
4.200,-31.27,8.921,86.26,-40.14,76.35,339.9
4.210,-30.49,8.515,89.34,-40.52,79.62,305.7
4.220,-29.68,8.110,92.14,-41.42,82.31,355.3
4.230,-28.85,7.686,94.99,-39.75,86.28,450.1
4.240,-27.96,7.315,100.1,-40.43,91.59,310.5
4.250,-27.01,6.878,101.5,-40.90,92.93,175.6
4.260,-26.10,6.497,100.4,-36.99,93.35,334.4
4.270,-25.15,6.138,104.8,-36.61,98.19,449.8
4.280,-24.13,5.765,109.5,-37.53,102.9,289.5
4.290,-23.09,5.387,110.5,-37.77,103.8,153.3
4.300,-22.06,5.010,110.5,-35.66,104.6,309.4
4.310,-21.00,4.674,114.5,-34.30,109.3,463.6
4.320,-19.87,4.324,118.3,-32.63,113.7,359.0
4.330,-18.72,4.022,119.1,-30.03,115.2,130.5
4.340,-17.57,3.723,119.7,-30.98,115.7,211.9
4.350,-16.41,3.402,120.0,-27.32,116.9,398.7
4.360,-15.23,3.177,121.7,-22.42,119.6,299.5
4.370,-14.02,2.954,123.8,-23.76,121.5,186.5
4.380,-12.80,2.702,125.3,-24.34,122.9,260.3
4.390,-11.56,2.467,124.3,-18.87,122.9,878.7
4.400,-10.34,2.324,122.3,-6.656,122.1,208.5
4.410,-9.119,2.334,127.3,-14.30,126.5,600.0
4.420,-7.811,2.038,127.9,-24.70,125.5,321.2
4.430,-6.610,1.840,127.5,-16.88,126.4,710.3
4.440,-5.283,1.701,130.7,-10.88,130.2,489.9
4.450,-4.005,1.622,129.6,-7.897,129.4,353.9
4.460,-2.695,1.543,131.3,-4.708,131.2,292.5
4.470,-1.381,1.528,130.3,-1.227,130.3,288.0
4.480,-9.024E-2,1.518,128.8,0.125,128.8,128.0
4.490,1.195,1.530,130.6,1.512,130.6,269.1
4.500,2.521,1.548,130.6,4.928,130.5,241.4
4.510,3.806,1.629,128.8,7.190,128.6,287.1
4.520,5.093,1.692,126.6,7.244,126.4,155.5
4.530,6.334,1.774,126.6,10.08,126.2,582.5
4.540,7.618,1.894,124.1,17.30,122.9,663.0
4.550,8.791,2.120,130.1,23.43,127.9,103.0
4.560,10.18,2.362,128.2,16.20,127.2,427.8
4.570,11.34,2.444,117.1,15.20,116.1,696.1
4.580,12.50,2.666,118.1,23.51,115.7,483.6
4.590,13.65,2.914,117.5,24.25,115.0,126.5
4.600,14.80,3.151,118.2,25.46,115.4,166.2
4.610,15.96,3.423,117.3,27.69,113.9,424.9
4.620,17.08,3.705,113.8,31.28,109.4,187.0
4.630,18.15,4.049,114.4,31.12,110.1,145.9
4.640,19.28,4.327,112.9,30.78,108.7,263.5
4.650,20.32,4.664,108.2,32.21,103.3,360.9
4.660,21.34,4.972,107.5,32.66,102.4,292.1
4.670,22.37,5.317,107.6,37.63,100.8,460.7
4.680,23.36,5.724,102.2,38.43,94.68,493.8
4.690,24.26,6.086,97.27,36.90,90.01,310.3
4.700,25.16,6.462,96.75,36.77,89.49,148.2
4.710,26.05,6.822,94.70,36.66,87.31,642.5
4.720,26.91,7.195,94.34,46.40,82.14,488.9
4.730,27.70,7.750,92.60,47.22,79.66,530.9
4.740,28.50,8.140,86.52,33.41,79.81,629.8
4.750,29.29,8.418,83.67,33.75,76.57,429.8
4.760,30.03,8.815,79.95,36.83,70.97,397.7
4.770,30.71,9.154,76.25,33.87,68.32,410.1
4.780,31.40,9.492,73.01,34.69,64.25,357.5
4.790,32.00,9.848,69.30,34.83,59.91,410.7
4.800,32.59,10.19,66.14,33.31,57.14,253.1
4.810,33.14,10.51,63.98,30.72,56.12,361.2
4.820,33.72,10.80,60.18,29.98,52.18,383.9
4.830,34.18,11.11,55.12,28.71,47.05,403.9
4.840,34.66,11.38,53.32,27.85,45.46,285.9
4.850,35.09,11.67,49.70,27.63,41.31,374.0
4.860,35.48,11.93,46.02,21.75,40.55,423.7
4.870,35.90,12.11,42.88,19.00,38.45,370.7
4.880,36.25,12.31,38.42,19.32,33.21,443.5
4.890,36.57,12.49,35.11,18.67,29.74,424.6
4.900,36.85,12.68,30.82,17.73,25.22,402.0
4.910,37.07,12.85,26.46,14.37,22.22,427.0
4.920,37.29,12.97,23.16,11.05,20.35,274.0
4.930,37.48,13.07,20.55,10.86,17.44,335.7
4.940,37.64,13.19,17.60,10.64,14.01,333.7
4.950,37.76,13.28,13.37,6.747,11.54,442.6
4.960,37.87,13.32,9.420,6.605,6.717,372.8
4.970,37.89,13.41,5.632,3.869,4.092,299.9
4.980,37.95,13.40,4.220,0.171,4.217,346.0
4.990,37.98,13.42,1.902,-1.246,1.438,487.2
5.000,37.98,13.38,5.714,-3.674,-4.376,536.9
5.010,37.89,13.34,10.69,-3.224,-10.19,444.2
5.020,37.78,13.31,13.72,-6.901,-11.85,371.3
5.030,37.65,13.20,17.01,-11.21,-12.79,393.5
5.040,37.52,13.09,20.76,-11.45,-17.32,444.0
5.050,37.31,12.98,25.75,-12.20,-22.68,355.5
5.060,37.07,12.84,27.67,-15.61,-22.85,417.4
5.070,36.85,12.66,31.25,-20.57,-23.52,364.9
5.080,36.60,12.43,35.29,-19.50,-29.42,479.2
5.090,36.26,12.27,39.05,-18.99,-34.12,360.8
5.100,35.92,12.05,42.42,-23.23,-35.49,395.5
5.110,35.55,11.81,46.68,-23.53,-40.32,384.3
5.120,35.11,11.58,49.85,-23.32,-44.06,292.1
5.130,34.67,11.34,51.83,-27.30,-44.06,375.0
5.140,34.23,11.04,56.76,-30.25,-48.02,420.4
5.150,33.71,10.74,60.64,-29.46,-53.01,342.0
5.160,33.17,10.45,62.31,-30.19,-54.50,325.4
5.170,32.62,10.13,66.81,-32.51,-58.37,393.6
5.180,32.00,9.796,70.72,-35.70,-61.05,325.4
5.190,31.40,9.419,72.48,-34.86,-63.55,358.2
5.200,30.73,9.099,76.36,-33.13,-68.79,384.8
5.210,30.02,8.757,80.10,-36.75,-71.18,458.8
5.220,29.31,8.364,82.55,-31.34,-76.37,407.3
5.230,28.49,8.130,85.50,-29.86,-80.12,652.5
5.240,27.70,7.766,94.23,-42.36,-84.17,487.4
5.250,26.81,7.283,94.35,-41.10,-84.93,105.4
5.260,26.01,6.944,92.36,-38.83,-83.80,252.0
5.270,25.13,6.506,97.27,-39.78,-88.77,333.9
5.280,24.23,6.149,97.19,-35.73,-90.38,447.1
5.290,23.33,5.791,101.3,-35.15,-95.05,466.9
5.300,22.33,5.446,107.0,-35.73,-100.9,286.3
5.310,21.31,5.077,105.6,-33.50,-100.1,200.6
5.320,20.33,4.776,106.2,-30.94,-101.6,260.5
5.330,19.28,4.458,109.8,-30.97,-105.3,312.2
5.340,18.22,4.156,110.9,-29.10,-107.0,216.6
5.350,17.14,3.876,112.4,-27.90,-108.8,270.1
5.360,16.04,3.598,114.4,-26.63,-111.3,313.0
5.370,14.91,3.344,116.9,-24.23,-114.4,300.9
5.380,13.76,3.114,117.3,-22.03,-115.2,153.4
5.390,12.61,2.903,117.7,-21.51,-115.8,101.6
5.400,11.44,2.683,117.3,-20.48,-115.5,402.1
5.410,10.30,2.494,121.7,-16.18,-120.6,232.2
5.420,9.030,2.360,123.6,-17.60,-122.3,119.3
5.430,7.850,2.141,121.4,-17.09,-120.2,220.1
5.440,6.627,2.018,121.7,-12.16,-121.1,325.5
5.450,5.428,1.898,119.6,-11.33,-119.0,229.9
5.460,4.246,1.792,122.0,-7.937,-121.7,430.7
5.470,2.994,1.740,124.4,-3.343,-124.4,259.3
5.480,1.758,1.725,122.7,-2.682,-122.7,118.2
5.490,0.541,1.686,122.2,-2.788,-122.2,103.4
5.500,-0.686,1.669,122.7,-0.332,-122.7,175.8
5.510,-1.914,1.679,122.2,0.967,-122.2,224.5
5.520,-3.129,1.688,123.1,3.517,-123.0,309.8
5.530,-4.375,1.750,124.5,7.523,-124.3,402.5
5.540,-5.614,1.839,125.3,11.00,-124.8,441.5
5.550,-6.871,1.970,119.4,13.35,-118.6,653.2
5.560,-7.987,2.106,115.9,20.06,-114.2,106.3
5.570,-9.154,2.371,119.4,17.19,-118.1,276.7
5.580,-10.35,2.450,118.8,11.93,-118.2,167.1
5.590,-11.52,2.609,116.6,17.23,-115.3,466.6
5.600,-12.66,2.794,116.4,20.23,-114.6,214.9
5.610,-13.81,3.014,116.3,21.54,-114.3,160.5
5.620,-14.94,3.225,113.2,20.66,-111.3,277.4
5.630,-16.04,3.427,110.6,21.03,-108.6,278.4
5.640,-17.11,3.646,110.7,24.96,-107.8,305.7
5.650,-18.19,3.926,110.8,27.73,-107.2,186.8
5.660,-19.26,4.200,108.0,26.61,-104.7,263.8
5.670,-20.29,4.459,105.7,28.23,-101.9,361.4
5.680,-21.29,4.765,104.2,31.85,-99.27,321.1
5.690,-22.27,5.095,100.4,30.42,-95.72,349.9
5.700,-23.21,5.373,96.90,30.03,-92.13,220.6
5.710,-24.11,5.696,97.24,33.11,-91.43,156.4
5.720,-25.04,6.035,97.93,33.15,-92.14,204.6
5.730,-25.96,6.359,93.85,33.11,-87.82,561.4
5.740,-26.79,6.698,88.32,36.17,-80.57,380.4
5.750,-27.57,7.082,87.60,35.97,-79.87,164.8
5.760,-28.39,7.417,86.07,33.22,-79.40,271.6
5.770,-29.16,7.747,81.56,33.38,-74.41,633.8
5.780,-29.88,8.085,75.31,33.95,-67.22,568.6
5.790,-30.50,8.426,70.44,33.49,-61.97,348.3
5.800,-31.12,8.754,68.96,30.84,-61.68,169.4
5.810,-31.73,9.042,66.98,31.06,-59.35,410.3
5.820,-32.31,9.376,61.60,30.57,-53.48,450.9
5.830,-32.80,9.654,57.67,29.28,-49.69,438.1
5.840,-33.30,9.961,54.21,27.69,-46.60,326.5
5.850,-33.74,10.21,50.18,26.31,-42.73,133.1
5.860,-34.15,10.49,51.88,27.33,-44.09,143.0
5.870,-34.62,10.75,48.54,24.93,-41.65,402.4
5.880,-34.99,10.99,42.34,23.05,-35.52,779.6
5.890,-35.33,11.22,34.41,19.07,-28.64,369.8
5.900,-35.56,11.37,32.52,18.08,-27.03,424.4
5.910,-35.87,11.58,29.42,16.23,-24.54,333.8
5.920,-36.05,11.69,22.70,12.75,-18.78,541.8
5.930,-36.24,11.83,20.57,11.37,-17.14,129.5
5.940,-36.39,11.92,18.80,10.63,-15.51,106.6
5.950,-36.56,12.04,19.53,11.43,-15.84,470.1
5.960,-36.71,12.15,10.13,5.710,-8.366,424.5
5.970,-36.72,12.16,7.889,5.070,-6.044,334.5
5.980,-36.83,12.25,7.649,5.456,-5.361,258.9
5.990,-36.83,12.27,1.407,1.202,0.730,503.6
6.000,-36.82,12.27,2.060,-6.639E-2,2.059,419.2
6.010,-36.79,12.27,7.514,-4.649,5.903,286.0
6.020,-36.70,12.18,8.941,-6.127,6.512,357.5
6.030,-36.66,12.14,12.01,-7.383,9.478,363.5
6.040,-36.51,12.03,18.49,-10.98,14.87,518.6
6.050,-36.36,11.92,20.94,-11.62,17.42,415.9
6.060,-36.16,11.80,27.06,-15.27,22.34,404.3
6.070,-35.91,11.62,29.77,-17.03,24.41,414.5
6.080,-35.67,11.46,33.87,-19.49,27.70,442.0
6.090,-35.36,11.23,39.95,-23.14,32.57,408.2
6.100,-35.02,11.00,41.54,-22.71,34.79,217.6
6.110,-34.66,10.78,42.90,-22.17,36.73,104.9
6.120,-34.29,10.55,43.82,-23.45,37.02,258.3
6.130,-33.92,10.31,47.37,-24.61,40.47,425.0
6.140,-33.48,10.06,53.03,-27.06,45.61,546.9
6.150,-33.01,9.765,57.91,-29.82,49.64,405.0
6.160,-32.48,9.465,61.50,-31.19,53.01,325.3
6.170,-31.95,9.141,63.89,-32.33,55.11,295.8
6.180,-31.38,8.818,67.46,-33.33,58.65,329.4
6.190,-30.78,8.475,69.99,-33.05,61.70,342.7
6.200,-30.15,8.157,73.23,-33.08,65.33,421.9
6.210,-29.47,7.813,78.28,-34.79,70.13,535.9
6.220,-28.75,7.462,81.05,-29.86,75.35,376.3
6.230,-27.96,7.216,83.70,-30.68,77.88,227.4
6.240,-27.19,6.848,84.95,-36.66,76.63,228.1
6.250,-26.43,6.483,85.10,-34.58,77.76,403.7
6.260,-25.63,6.156,90.63,-33.15,84.34,437.5
6.270,-24.75,5.820,93.84,-33.84,87.52,241.9
6.280,-23.88,5.479,94.09,-33.32,87.99,259.2
6.290,-22.99,5.153,96.83,-30.63,91.86,372.8
6.300,-22.04,4.867,99.51,-29.56,95.01,307.5
6.310,-21.09,4.562,101.3,-28.72,97.16,263.9
6.320,-20.10,4.292,104.3,-28.99,100.2,318.0
6.330,-19.08,3.982,107.2,-28.22,103.4,304.3
6.340,-18.03,3.728,107.8,-24.26,105.1,274.0
6.350,-16.98,3.497,108.1,-23.26,105.6,140.5
6.360,-15.92,3.263,108.6,-22.19,106.4,218.2
6.370,-14.85,3.053,111.3,-20.96,109.3,220.3
6.380,-13.74,2.844,111.4,-19.02,109.7,86.22
6.390,-12.66,2.673,111.4,-19.31,109.7,206.9
6.400,-11.54,2.457,115.0,-17.98,113.5,712.7
6.410,-10.39,2.313,112.2,-5.132,112.1,179.2
6.420,-9.301,2.355,115.2,-11.85,114.6,409.3
6.430,-8.096,2.076,116.2,-20.26,114.4,427.8
6.440,-7.013,1.950,116.6,-14.25,115.7,577.1
6.450,-5.781,1.791,120.5,-11.13,120.0,400.9
6.460,-4.613,1.727,117.6,-5.684,117.4,449.4
6.470,-3.433,1.678,116.8,-3.751,116.7,182.3
6.480,-2.278,1.652,115.4,-2.254,115.3,145.4
6.490,-1.126,1.633,116.9,-1.061,116.9,184.8
6.500,5.918E-2,1.631,118.6,0.367,118.6,181.9
6.510,1.245,1.640,118.0,2.187,118.0,255.3
6.520,2.419,1.675,115.2,4.155,115.1,209.5
6.530,3.547,1.723,115.5,5.881,115.3,174.1
6.540,4.726,1.792,115.2,7.373,115.0,265.7
6.550,5.847,1.871,113.2,10.60,112.7,230.4
6.560,6.980,2.004,113.4,11.93,112.8,491.4
6.570,8.103,2.109,113.4,18.47,111.9,30.60
6.580,9.218,2.374,114.2,16.22,113.0,100.3
6.590,10.36,2.434,112.5,11.78,111.9,164.8
6.600,11.46,2.609,111.0,17.11,109.6,537.5
6.610,12.56,2.776,109.9,20.05,108.1,302.6
6.620,13.62,3.010,108.7,23.44,106.1,271.2
6.630,14.68,3.245,107.6,23.63,105.0,156.2
6.640,15.72,3.483,105.5,23.61,102.8,190.9
6.650,16.74,3.717,103.7,23.00,101.1,200.6
6.660,17.74,3.943,102.6,25.16,99.43,371.0
6.670,18.72,4.220,100.1,28.69,95.85,341.6
6.680,19.66,4.517,96.61,27.69,92.56,214.4
6.690,20.57,4.774,95.99,28.22,91.75,56.27
6.700,21.49,5.081,95.99,28.77,91.58,311.4
6.710,22.41,5.349,92.45,30.46,87.28,548.7
6.720,23.24,5.690,86.95,33.35,80.30,410.0
6.730,24.01,6.016,84.40,30.47,78.71,343.0
6.740,24.81,6.300,81.14,29.70,75.51,392.9
6.750,25.52,6.610,76.41,31.48,69.62,307.8
6.760,26.20,6.929,75.54,29.84,69.40,354.3
6.770,26.91,7.207,74.46,34.81,65.83,452.1
6.780,27.52,7.625,73.92,39.74,62.33,307.2
6.790,28.16,8.002,69.20,30.96,61.88,655.1
6.800,28.76,8.244,64.78,25.07,59.73,408.8
6.810,29.35,8.503,62.26,26.69,56.25,396.3
6.820,29.88,8.778,58.43,27.49,51.56,268.0
6.830,30.38,9.053,56.84,24.92,51.09,347.0
6.840,30.91,9.277,53.08,26.37,46.06,345.6
6.850,31.30,9.580,49.00,24.33,42.54,337.9
6.860,31.76,9.763,47.00,21.59,41.74,380.0
6.870,32.14,10.01,41.73,22.39,35.21,459.9
6.880,32.46,10.21,37.67,19.57,32.19,328.0
6.890,32.78,10.40,37.29,16.84,33.27,246.0
6.900,33.13,10.55,33.28,16.98,28.62,436.4
6.910,33.36,10.74,28.14,16.13,23.06,365.5
6.920,33.59,10.87,26.10,12.45,22.94,309.6
6.930,33.81,10.99,22.58,12.51,18.80,426.4
6.940,33.96,11.12,17.88,11.63,13.58,381.1
6.950,34.09,11.22,15.49,10.13,11.72,324.5
6.960,34.20,11.32,12.42,6.503,10.58,394.7
6.970,34.30,11.35,9.826,1.783,9.663,319.8
6.980,34.39,11.36,6.322,3.012,5.558,384.3
6.990,34.41,11.41,4.832,4.669,1.244,329.4
7.000,34.42,11.45,1.612,1.561,-0.401,449.2
7.010,34.40,11.45,4.201,-4.094,-0.941,397.4
7.020,34.40,11.37,7.175,-4.781,-5.350,418.8
7.030,34.29,11.35,11.56,-5.367,-10.24,401.1
7.040,34.19,11.26,15.08,-9.681,-11.56,433.1
7.050,34.06,11.16,19.13,-12.54,-14.45,330.3
7.060,33.90,11.01,21.81,-12.75,-17.70,351.7
7.070,33.71,10.90,24.68,-12.18,-21.46,394.4
7.080,33.47,10.77,28.29,-12.23,-25.51,420.3
7.090,33.20,10.66,32.57,-16.14,-28.29,389.9
7.100,32.91,10.45,36.61,-18.17,-31.78,322.0
7.110,32.56,10.29,38.66,-17.88,-34.28,250.5
7.120,32.22,10.09,41.56,-22.03,-35.24,333.2
7.130,31.86,9.853,45.17,-22.66,-39.08,435.9
7.140,31.44,9.635,49.70,-23.02,-44.04,398.4
7.150,30.98,9.393,53.01,-24.19,-47.17,252.6
7.160,30.50,9.151,54.45,-25.28,-48.22,242.9
7.170,30.01,8.887,57.49,-27.67,-50.39,380.7
7.180,29.49,8.597,62.24,-28.92,-55.11,533.3
7.190,28.91,8.309,66.67,-26.68,-61.10,207.7
7.200,28.27,8.064,65.69,-26.56,-60.09,281.8
7.210,27.71,7.778,68.95,-32.25,-60.94,498.7
7.220,27.05,7.419,76.77,-34.92,-68.37,418.1
7.230,26.34,7.079,76.75,-32.78,-69.40,293.9
7.240,25.66,6.763,77.29,-30.45,-71.04,320.6
7.250,24.92,6.470,82.16,-30.54,-76.27,301.2
7.260,24.14,6.152,83.47,-31.21,-77.41,238.0
7.270,23.37,5.846,85.42,-30.19,-79.91,262.0
7.280,22.54,5.549,89.30,-30.92,-83.77,435.0
7.290,21.70,5.228,92.59,-29.92,-87.63,334.7
7.300,20.78,4.950,90.88,-24.34,-87.57,288.7
7.310,19.95,4.741,94.14,-26.14,-90.44,278.3
7.320,18.98,4.427,99.58,-28.12,-95.53,266.5
7.330,18.03,4.179,97.69,-25.43,-94.32,222.7
7.340,17.09,3.919,99.48,-24.58,-96.40,221.3
7.350,16.11,3.687,100.7,-22.17,-98.18,254.7
7.360,15.13,3.475,102.6,-21.94,-100.2,227.5
7.370,14.10,3.248,105.4,-21.76,-103.2,192.4
7.380,13.06,3.040,106.1,-21.02,-104.0,204.6
7.390,12.02,2.828,106.3,-18.58,-104.6,268.9
7.400,10.97,2.668,105.9,-15.03,-104.8,255.5
7.410,9.926,2.527,109.1,-15.48,-108.0,154.0
7.420,8.810,2.359,110.2,-14.87,-109.2,218.4
7.430,7.742,2.230,110.6,-12.28,-109.9,194.7
7.440,6.612,2.113,111.0,-11.18,-110.4,134.9
7.450,5.534,2.006,110.4,-10.09,-109.9,246.3
7.460,4.414,1.911,110.2,-6.839,-110.0,175.0
7.470,3.335,1.869,110.3,-5.984,-110.2,180.7
7.480,2.211,1.792,112.3,-4.786,-112.2,222.0
7.490,1.090,1.774,112.2,-1.247,-112.2,244.3
7.500,-3.349E-2,1.767,111.7,-0.290,-111.7,98.85
7.510,-1.143,1.768,111.5,0.655,-111.5,95.83
7.520,-2.264,1.780,112.3,1.602,-112.3,212.9
7.530,-3.390,1.800,111.4,4.567,-111.3,319.6
7.540,-4.489,1.871,111.3,8.425,-111.0,400.9
7.550,-5.609,1.968,113.9,12.09,-113.2,254.3
7.560,-6.753,2.113,108.6,12.19,-107.9,371.4
7.570,-7.768,2.212,104.5,12.68,-103.7,36.40
7.580,-8.827,2.366,109.3,13.22,-108.5,91.10
7.590,-9.938,2.476,107.2,12.12,-106.5,143.4
7.600,-10.96,2.609,105.3,15.24,-104.2,303.6
7.610,-12.02,2.781,104.8,16.42,-103.5,223.3
7.620,-13.03,2.937,102.5,18.28,-100.8,322.0
7.630,-14.04,3.147,100.6,20.12,-98.54,68.13
7.640,-15.00,3.340,100.2,18.45,-98.46,121.7
7.650,-16.01,3.516,99.67,19.65,-97.72,247.2
7.660,-16.95,3.733,96.95,22.94,-94.20,269.7
7.670,-17.89,3.975,96.67,23.11,-93.87,116.6
7.680,-18.83,4.195,95.09,23.17,-92.22,198.7
7.690,-19.74,4.438,92.81,23.94,-89.67,240.2
7.700,-20.62,4.674,91.14,24.55,-87.77,331.8
7.710,-21.49,4.929,87.76,26.23,-83.75,358.4
7.720,-22.30,5.198,84.68,27.01,-80.25,273.7
7.730,-23.10,5.469,83.30,26.83,-78.86,230.4
7.740,-23.87,5.735,80.46,24.11,-76.76,101.9
7.750,-24.63,5.951,80.76,25.62,-76.59,285.0
7.760,-25.41,6.247,77.63,27.81,-72.48,417.8
7.770,-26.08,6.508,72.04,26.41,-67.02,349.8
7.780,-26.75,6.776,71.60,27.50,-66.10,196.5
7.790,-27.40,7.058,69.44,27.89,-63.59,316.4
7.800,-28.02,7.333,65.01,25.28,-59.89,233.2
7.810,-28.60,7.563,64.24,25.74,-58.86,247.1
7.820,-29.20,7.848,62.01,26.97,-55.84,284.2
7.830,-29.72,8.103,57.73,24.84,-52.12,397.9
7.840,-30.24,8.345,54.83,23.69,-49.45,322.2
7.850,-30.71,8.577,50.92,22.85,-45.51,289.8
7.860,-31.15,8.802,49.10,22.05,-43.87,258.4
7.870,-31.58,9.018,46.39,21.74,-40.98,387.4
7.880,-31.97,9.237,41.16,18.87,-36.58,397.5
7.890,-32.32,9.395,37.98,17.10,-33.92,332.3
7.900,-32.65,9.579,35.21,16.83,-30.93,377.2
7.910,-32.93,9.732,30.17,13.94,-26.75,420.2
7.920,-33.18,9.858,26.66,11.85,-23.88,275.8
7.930,-33.41,9.969,24.87,11.03,-22.29,314.7
7.940,-33.63,10.08,21.00,10.75,-18.04,352.5
7.950,-33.77,10.18,17.62,10.01,-14.51,406.9
7.960,-33.92,10.28,13.73,6.277,-12.21,421.5
7.970,-34.02,10.31,10.16,1.902,-9.977,418.8
7.980,-34.12,10.32,6.328,1.492,-6.150,382.6
7.990,-34.14,10.34,1.768,0.771,-1.591,360.4
8.000,-34.15,10.33,1.205,-1.174,0.272,230.5
8.010,-34.13,10.32,2.848,-1.802,2.206,284.9
8.020,-34.10,10.30,6.101,-2.574,5.531,392.5
8.030,-34.02,10.26,10.87,-5.269,9.512,478.2
8.040,-33.91,10.19,15.53,-9.406,12.36,428.4
8.050,-33.78,10.08,19.37,-11.28,15.75,324.8
8.060,-33.60,9.965,22.00,-12.14,18.35,256.4
8.070,-33.41,9.833,24.02,-12.68,20.40,304.7
8.080,-33.19,9.711,27.70,-13.41,24.23,549.1
8.090,-32.93,9.565,34.82,-16.85,30.47,516.6
8.100,-32.58,9.374,38.84,-20.52,32.98,315.3
8.110,-32.27,9.155,39.66,-18.22,35.23,228.2
8.120,-31.88,9.010,42.74,-18.01,38.76,347.1
8.130,-31.49,8.794,46.43,-22.02,40.88,352.4
8.140,-31.06,8.570,49.59,-22.83,44.02,314.0
8.150,-30.61,8.338,52.19,-23.31,46.70,236.2
8.160,-30.13,8.103,54.45,-23.87,48.94,295.6
8.170,-29.63,7.860,57.35,-24.05,52.06,358.2
8.180,-29.08,7.622,60.64,-22.32,56.38,465.4
8.190,-28.50,7.414,64.56,-21.60,60.84,475.6
8.200,-27.87,7.190,70.36,-26.70,65.09,413.1
8.210,-27.20,6.880,70.15,-30.85,63.01,98.88
8.220,-26.61,6.573,68.17,-27.91,62.20,242.7
8.230,-25.96,6.322,73.42,-27.45,68.09,551.7
8.240,-25.25,6.024,78.52,-27.94,73.38,334.0
8.250,-24.49,5.763,79.68,-26.96,74.98,180.7
8.260,-23.75,5.485,80.37,-26.68,75.81,177.5
8.270,-22.97,5.230,83.14,-26.67,78.74,310.7
8.280,-22.17,4.952,84.92,-24.49,81.31,233.7
8.290,-21.35,4.740,87.17,-25.94,83.22,225.4
8.300,-20.51,4.433,89.94,-27.31,85.69,274.9
8.310,-19.63,4.193,91.82,-23.57,88.75,337.2
8.320,-18.73,3.962,93.48,-22.94,90.63,273.1
8.330,-17.82,3.735,96.27,-22.47,93.61,176.3
8.340,-16.86,3.512,97.53,-22.22,94.96,242.7
8.350,-15.92,3.290,98.61,-20.14,96.53,205.6
8.360,-14.93,3.109,99.60,-17.96,97.96,226.2
8.370,-13.96,2.931,100.8,-17.96,99.17,2.948
8.380,-12.95,2.750,100.9,-17.97,99.29,97.71
8.390,-11.98,2.572,100.3,-16.55,98.96,301.4
8.400,-10.97,2.419,101.9,-12.10,101.2,725.1
8.410,-9.954,2.330,110.4,-8.770,110.1,196.3
8.420,-8.765,2.244,109.0,-14.36,108.1,473.2
8.430,-7.792,2.042,99.32,-16.52,97.94,213.4
8.440,-6.806,1.913,106.2,-14.48,105.2,630.4
8.450,-5.688,1.753,110.5,-10.56,110.0,354.6
8.460,-4.607,1.702,107.0,-6.054,106.8,357.3
8.470,-3.552,1.632,106.8,-5.421,106.6,40.63
8.480,-2.474,1.594,108.1,-4.844,108.0,163.0
8.490,-1.393,1.535,107.5,-3.207,107.5,209.7
8.500,-0.324,1.530,106.9,9.724E-2,106.9,196.2
8.510,0.745,1.537,107.6,0.524,107.6,95.50
8.520,1.828,1.540,108.0,1.489,108.0,235.9
8.530,2.905,1.567,105.9,4.882,105.8,302.7
8.540,3.944,1.638,105.0,7.383,104.8,170.7
8.550,5.000,1.714,103.8,6.459,103.6,92.91
8.560,6.017,1.767,103.7,8.364,103.4,178.1
8.570,7.068,1.881,104.6,11.08,104.0,678.1
8.580,8.097,1.989,99.91,19.06,98.07,280.4
8.590,9.029,2.263,105.8,19.53,104.0,286.5
8.600,10.18,2.379,104.5,10.14,104.1,310.5
8.610,11.11,2.466,96.98,14.05,95.96,563.5
8.620,12.10,2.660,99.28,18.79,97.49,271.1
8.630,13.06,2.841,96.89,18.45,95.12,228.2
8.640,14.00,3.029,95.30,20.34,93.10,247.1
8.650,14.92,3.248,94.15,22.10,91.52,186.6
8.660,15.83,3.471,93.54,23.01,90.67,201.8
8.670,16.74,3.708,91.51,23.96,88.32,265.5
8.680,17.59,3.950,88.00,23.33,84.85,195.2
8.690,18.43,4.175,87.57,23.57,84.34,122.1
8.700,19.28,4.422,87.14,25.14,83.44,197.9
8.710,20.10,4.678,83.69,24.14,80.14,351.9
8.720,20.88,4.904,79.92,22.89,76.57,263.5
8.730,21.63,5.136,78.42,24.05,74.64,304.2
8.740,22.38,5.385,77.16,26.74,72.39,286.5
8.750,23.08,5.670,73.85,26.64,68.88,326.7
8.760,23.75,5.918,70.71,25.43,65.98,224.4
8.770,24.40,6.179,69.35,25.38,64.54,255.4
8.780,25.05,6.426,66.82,25.87,61.61,351.7
8.790,25.63,6.696,62.48,25.83,56.89,299.5
8.800,26.18,6.942,60.56,23.65,55.75,227.6
8.810,26.75,7.169,58.67,24.58,53.28,404.6
8.820,27.25,7.434,56.85,29.15,48.81,373.0
8.830,27.72,7.752,54.54,28.43,46.54,547.3
8.840,28.18,8.003,46.96,19.82,42.58,532.7
8.850,28.57,8.149,45.03,17.14,41.64,246.5
8.860,29.01,8.345,44.23,19.87,39.52,338.4
8.870,29.37,8.546,38.03,17.81,33.60,386.2
8.880,29.68,8.701,36.24,15.57,32.73,265.6
8.890,30.02,8.858,33.73,15.81,29.79,352.8
8.900,30.28,9.018,28.83,14.75,24.77,408.4
8.910,30.52,9.152,25.78,12.71,22.43,247.2
8.920,30.73,9.272,23.91,11.71,20.84,226.1
8.930,30.93,9.387,21.55,11.06,18.50,468.4
8.940,31.10,9.493,14.83,7.503,12.79,379.0
8.950,31.19,9.537,12.51,5.504,11.24,226.3
8.960,31.32,9.603,12.66,4.823,11.71,94.72
8.970,31.42,9.633,10.05,5.054,8.690,333.9
8.980,31.50,9.704,7.245,4.837,5.394,369.0
8.990,31.53,9.730,2.115,1.197,1.744,398.0
9.000,31.53,9.728,0.784,-0.246,-0.744,366.1
9.010,31.51,9.725,4.787,-1.877,-4.404,415.3
9.020,31.44,9.691,9.567,-4.853,-8.245,257.2
9.030,31.35,9.628,10.13,-4.375,-9.134,289.0
9.040,31.26,9.603,14.04,-6.182,-12.61,346.8
9.050,31.10,9.504,18.67,-10.09,-15.70,458.5
9.060,30.95,9.401,21.74,-11.03,-18.73,258.0
9.070,30.72,9.284,24.89,-11.98,-21.81,283.7
9.080,30.51,9.162,26.30,-12.32,-23.23,231.8
9.090,30.26,9.037,29.83,-13.29,-26.70,377.0
9.100,29.98,8.896,33.67,-16.58,-29.31,302.5
9.110,29.67,8.706,36.21,-16.85,-32.05,315.9
9.120,29.34,8.559,39.36,-17.81,-35.10,197.4
9.130,28.97,8.349,40.18,-17.55,-36.15,309.8
9.140,28.61,8.208,43.63,-16.86,-40.24,403.4
9.150,28.17,8.012,49.85,-21.38,-45.03,471.1
9.160,27.71,7.780,51.70,-23.96,-45.82,359.8
9.170,27.25,7.533,56.55,-24.36,-51.04,314.5
9.180,26.69,7.293,58.63,-23.64,-53.65,191.3
9.190,26.18,7.060,57.85,-22.93,-53.12,97.93
9.200,25.63,6.834,60.92,-23.73,-56.11,472.1
9.210,25.05,6.586,67.02,-26.93,-61.37,331.8
9.220,24.40,6.296,68.87,-26.95,-63.38,210.1
9.230,23.79,6.047,68.60,-24.77,-63.97,222.9
9.240,23.12,5.801,72.17,-24.71,-67.81,339.5
9.250,22.43,5.552,75.22,-26.46,-70.41,271.2
9.260,21.71,5.271,77.70,-27.71,-72.60,259.3
9.270,20.98,4.998,79.27,-24.89,-75.26,301.5
9.280,20.21,4.774,81.06,-23.34,-77.63,241.0
9.290,19.43,4.532,83.02,-23.76,-79.55,211.1
9.300,18.62,4.298,85.19,-23.44,-81.90,156.8
9.310,17.79,4.063,86.09,-23.40,-82.85,235.0
9.320,16.96,3.830,88.74,-22.57,-85.83,129.7
9.330,16.07,3.611,89.48,-22.42,-86.63,162.8
9.340,15.23,3.382,90.23,-22.30,-87.43,182.3
9.350,14.32,3.165,93.59,-20.97,-91.21,313.7
9.360,13.40,2.962,93.97,-18.65,-92.10,124.9
9.370,12.48,2.792,94.54,-18.44,-92.72,183.8
9.380,11.55,2.594,96.24,-17.25,-94.68,492.3
9.390,10.59,2.447,98.15,-9.574,-97.68,259.3
9.400,9.597,2.402,100.8,-13.86,-99.81,330.6
9.410,8.591,2.170,100.4,-20.03,-98.35,107.6
9.420,7.629,2.002,100.6,-13.91,-99.61,465.8
9.430,6.598,1.892,101.2,-10.43,-100.6,297.3
9.440,5.616,1.793,98.92,-8.438,-98.56,128.1
9.450,4.627,1.723,101.0,-7.470,-100.8,273.7
9.460,3.601,1.644,102.6,-4.904,-102.4,105.8
9.470,2.578,1.625,101.9,-4.472,-101.8,101.1
9.480,1.565,1.554,101.9,-4.487,-101.8,131.6
9.490,0.543,1.535,101.0,-1.132,-101.0,238.4
9.500,-0.454,1.532,101.5,5.659E-2,-101.5,154.3
9.510,-1.486,1.536,102.5,1.697,-102.5,203.6
9.520,-2.505,1.566,102.7,3.901,-102.6,173.3
9.530,-3.538,1.614,101.0,4.443,-100.9,192.7
9.540,-4.522,1.654,99.74,6.520,-99.52,279.6
9.550,-5.529,1.745,103.1,10.47,-102.6,219.7
9.560,-6.573,1.864,101.2,11.08,-100.6,552.6
9.570,-7.541,1.966,92.23,12.76,-91.35,385.8
9.580,-8.400,2.119,99.52,19.08,-97.68,223.6
9.590,-9.494,2.348,100.8,12.00,-100.1,390.2
9.600,-10.40,2.359,93.79,6.825,-93.54,316.1
9.610,-11.36,2.484,97.04,14.64,-95.93,472.9
9.620,-12.32,2.652,95.50,16.11,-94.13,367.2
9.630,-13.25,2.807,91.95,18.22,-90.13,306.6
9.640,-14.12,3.016,89.28,17.86,-87.47,117.6
9.650,-15.00,3.164,90.63,14.73,-89.43,41.16
9.660,-15.91,3.311,89.76,17.23,-88.10,421.3
9.670,-16.76,3.508,84.23,20.27,-81.75,351.3
9.680,-17.55,3.716,83.89,20.64,-81.31,31.17
9.690,-18.38,3.921,85.36,19.66,-83.07,171.5
9.700,-19.21,4.109,80.40,19.75,-77.94,379.4
9.710,-19.94,4.316,77.43,21.45,-74.40,266.3
9.720,-20.70,4.538,77.89,22.77,-74.49,97.73
9.730,-21.43,4.772,76.84,23.24,-73.25,215.2
9.740,-22.16,5.003,74.07,22.88,-70.45,288.9
9.750,-22.84,5.229,70.88,22.94,-67.07,335.3
9.760,-23.50,5.462,68.00,22.92,-64.02,241.3
9.770,-24.12,5.688,65.87,22.53,-61.90,104.8
9.780,-24.74,5.912,66.08,22.53,-62.12,121.3
9.790,-25.37,6.138,63.97,22.03,-60.05,385.1
9.800,-25.94,6.353,58.53,22.26,-54.14,386.7
9.810,-26.45,6.583,56.32,22.64,-51.57,274.3
9.820,-26.97,6.806,55.69,24.07,-50.22,484.2
9.830,-27.45,7.065,47.32,21.12,-42.35,340.5
9.840,-27.82,7.228,46.33,18.03,-42.67,239.6
9.850,-28.31,7.425,48.56,17.79,-45.19,105.5
9.860,-28.72,7.584,42.52,16.54,-39.17,476.1
9.870,-29.09,7.756,39.20,15.44,-36.03,280.2
9.880,-29.44,7.892,37.20,15.08,-34.00,370.1
9.890,-29.77,8.058,32.85,15.71,-28.85,433.3
9.900,-30.02,8.207,28.18,13.70,-24.62,341.3
9.910,-30.26,8.332,26.38,12.17,-23.40,178.8
9.920,-30.49,8.450,24.68,11.67,-21.75,279.1
9.930,-30.70,8.565,21.63,8.174,-20.02,371.3
9.940,-30.89,8.614,17.22,6.237,-16.05,412.5
9.950,-31.02,8.690,13.26,6.115,-11.77,364.1
9.960,-31.12,8.736,10.36,4.852,-9.156,287.9
9.970,-31.20,8.787,7.655,3.411,-6.853,281.9
9.980,-31.26,8.804,4.995,0.901,-4.913,310.0
9.990,-31.30,8.805,1.758,2.163E-2,-1.758,301.4
10.000,-31.30,8.805,1.283,-0.145,1.275,347.1