t,x,y,v,v_{y},v_{x},a
0.000,-51.70,23.28,,,,
0.010,-51.10,22.71,84.00,-55.91,62.69,
0.020,-50.45,22.16,88.85,-57.28,67.93,505.2
0.030,-49.74,21.57,93.93,-60.31,72.01,400.1
0.040,-49.01,20.95,96.85,-61.75,74.61,417.8
0.050,-48.25,20.33,101.0,-62.24,79.55,674.5
0.060,-47.42,19.71,107.5,-61.11,88.40,694.0
0.070,-46.48,19.11,113.8,-72.02,88.09,495.4
0.080,-45.65,18.27,114.5,-75.94,85.68,315.6
0.090,-44.77,17.59,117.7,-71.89,93.18,650.1
0.100,-43.79,16.83,126.5,-78.24,99.45,531.5
0.110,-42.78,16.03,128.0,-77.16,102.2,408.5
0.120,-41.75,15.28,131.8,-76.58,107.2,394.3
0.130,-40.64,14.49,136.1,-78.84,111.0,414.4
0.140,-39.53,13.71,138.9,-80.43,113.3,372.8
0.150,-38.37,12.89,143.6,-81.08,118.5,563.2
0.160,-37.16,12.09,148.5,-80.93,124.5,473.4
0.170,-35.88,11.27,152.2,-81.72,128.4,409.9
0.180,-34.59,10.45,152.4,-77.50,131.2,543.5
0.190,-33.26,9.717,160.2,-79.78,138.9,636.3
0.200,-31.81,8.856,164.7,-78.25,144.9,629.2
0.210,-30.36,8.152,164.4,-70.27,148.6,881.7
0.220,-28.84,7.451,169.6,-66.13,156.2,503.4
0.230,-27.23,6.829,169.2,-62.33,157.3,414.0
0.240,-25.69,6.204,171.6,-61.55,160.1,340.5
0.250,-24.03,5.598,176.1,-59.38,165.7,558.1
0.260,-22.38,5.016,176.8,-55.41,167.9,546.8
0.270,-20.67,4.490,179.4,-50.01,172.3,625.2
0.280,-18.93,4.016,180.1,-44.70,174.4,547.6
0.290,-17.18,3.596,182.4,-40.67,177.8,495.5
0.300,-15.38,3.203,184.3,-36.71,180.6,494.5
0.310,-13.57,2.861,182.8,-31.08,180.1,570.4
0.320,-11.77,2.581,181.9,-25.19,180.1,403.7
0.330,-9.969,2.358,187.5,-25.21,185.8,197.7
0.340,-8.058,2.077,188.2,-27.18,186.2,242.9
0.350,-6.245,1.814,185.6,-20.67,184.4,780.0
0.360,-4.370,1.664,186.6,-10.79,186.3,784.3
0.370,-2.520,1.598,185.5,-4.927,185.4,518.4
0.380,-0.661,1.565,185.7,-0.935,185.7,437.6
0.390,1.195,1.579,185.1,3.911,185.1,547.8
0.400,3.041,1.643,184.9,9.857,184.7,497.8
0.410,4.889,1.777,183.8,14.15,183.3,462.2
0.420,6.706,1.926,182.4,17.99,181.5,483.5
0.430,8.519,2.136,185.4,24.09,183.8,514.3
0.440,10.38,2.408,184.7,28.53,182.5,532.7
0.450,12.17,2.707,179.3,32.29,176.4,603.5
0.460,13.91,3.054,178.1,37.45,174.2,510.5
0.470,15.65,3.456,176.6,41.27,171.7,383.9
0.480,17.35,3.880,175.2,43.86,169.7,410.1
0.490,19.05,4.333,174.1,47.60,167.4,495.7
0.500,20.69,4.832,171.7,52.23,163.6,644.8
0.510,22.32,5.378,167.6,55.89,158.0,685.8
0.520,23.85,5.949,166.8,62.69,154.5,590.4
0.530,25.41,6.631,165.9,66.66,151.9,720.7
0.540,26.89,7.283,161.5,71.60,144.7,547.5
0.550,28.30,8.063,157.5,71.04,140.5,309.5
0.560,29.70,8.703,154.4,66.72,139.3,233.4
0.570,31.09,9.398,153.7,69.89,136.9,396.9
0.580,32.44,10.10,151.0,71.34,133.1,553.2
0.590,33.75,10.82,145.2,71.83,126.2,570.8
0.600,34.97,11.54,141.3,73.08,121.0,509.0
0.610,36.17,12.29,138.1,73.34,117.1,445.1
0.620,37.31,13.00,132.2,70.87,111.6,602.2
0.630,38.40,13.70,126.7,69.02,106.2,578.6
0.640,39.43,14.39,121.1,68.33,100.0,427.1
0.650,40.40,15.07,119.3,68.92,97.35,333.3
0.660,41.38,15.76,117.0,69.20,94.30,291.4
0.670,42.29,16.45,113.6,68.40,90.69,475.6
0.680,43.19,17.13,108.4,64.99,86.71,502.7
0.690,44.02,17.75,102.9,63.71,80.78,440.2
0.700,44.81,18.41,100.5,63.11,78.27,289.9
0.710,45.59,19.02,97.75,61.82,75.72,213.4
0.720,46.32,19.64,96.18,61.72,73.76,295.5
0.730,47.06,20.25,92.50,57.96,72.09,554.5
0.740,47.76,20.80,84.74,53.72,65.53,672.7
0.750,48.37,21.33,78.82,51.60,59.57,447.5
0.760,48.95,21.83,76.19,49.46,57.95,346.4
0.770,49.53,22.31,72.42,46.12,55.83,455.0
0.780,50.07,22.76,66.83,42.88,51.26,469.4
0.790,50.56,23.17,62.98,41.45,47.41,415.7
0.800,51.02,23.58,59.12,39.13,44.32,406.9
0.810,51.45,23.95,54.53,36.35,40.65,481.0
0.820,51.83,24.31,49.84,33.87,36.56,441.7
0.830,52.18,24.63,45.44,29.56,34.51,502.1
0.840,52.52,24.90,40.40,25.89,31.01,577.9
0.850,52.80,25.15,33.63,23.09,24.45,529.1
0.860,53.01,25.36,29.92,21.13,21.19,413.7
0.870,53.22,25.57,26.39,16.84,20.33,399.3
0.880,53.42,25.70,21.70,13.29,17.15,505.1
0.890,53.56,25.84,16.67,11.25,12.30,544.6
0.900,53.66,25.93,11.75,9.528,6.874,387.2
0.910,53.70,26.03,9.003,6.421,6.310,370.9
0.920,53.79,26.06,5.453,1.938,5.098,471.6
0.930,53.80,26.07,0.791,-0.517,-0.599,573.3
0.940,53.78,26.04,5.715,-1.657,-5.470,473.5
0.950,53.69,26.03,10.18,-5.102,-8.813,512.1
0.960,53.60,25.94,15.48,-10.72,-11.18,491.5
0.970,53.47,25.82,19.50,-13.21,-14.35,454.7
0.980,53.32,25.68,24.16,-16.71,-17.46,500.5
0.990,53.12,25.49,29.87,-20.56,-21.67,474.2
1.000,52.88,25.27,33.68,-23.50,-24.14,434.7
1.010,52.64,25.02,37.78,-24.56,-28.71,470.9
1.020,52.31,24.78,42.83,-25.97,-34.05,400.1
1.030,51.96,24.50,45.78,-29.45,-35.05,394.0
1.040,51.61,24.19,49.13,-33.28,-36.14,460.7
1.050,51.23,23.83,54.99,-36.50,-41.13,511.0
1.060,50.78,23.46,59.79,-39.24,-45.11,416.8
1.070,50.33,23.05,62.95,-42.32,-46.60,412.5
1.080,49.85,22.61,67.91,-44.21,-51.55,565.8
1.090,49.30,22.16,74.21,-47.47,-57.04,525.4
1.100,48.71,21.66,78.26,-49.00,-61.01,327.0
1.110,48.08,21.18,80.27,-49.53,-63.17,589.7
1.120,47.45,20.67,89.00,-57.52,-67.91,582.3
1.130,46.72,20.03,94.20,-60.06,-72.57,419.2
1.140,46.00,19.47,94.89,-58.65,-74.59,215.9
1.150,45.23,18.86,99.39,-62.83,-77.02,318.5
1.160,44.46,18.21,101.2,-62.95,-79.19,424.3
1.170,43.65,17.60,106.5,-64.27,-84.97,524.1
1.180,42.76,16.93,112.2,-66.90,-90.04,452.0
1.190,41.85,16.26,114.7,-67.68,-92.55,305.0
1.200,40.91,15.57,118.3,-69.67,-95.62,378.3
1.210,39.93,14.87,122.0,-70.71,-99.45,401.5
1.220,38.92,14.16,125.6,-70.93,-103.7,474.0
1.230,37.86,13.45,129.7,-70.79,-108.7,468.8
1.240,36.74,12.74,134.5,-72.59,-113.2,400.1
1.250,35.60,12.00,137.2,-72.72,-116.4,403.7
1.260,34.42,11.29,141.2,-72.63,-121.1,485.7
1.270,33.17,10.54,144.7,-71.12,-126.0,384.0
1.280,31.90,9.867,146.0,-69.19,-128.5,382.8
1.290,30.60,9.161,150.3,-70.36,-132.8,610.7
1.300,29.24,8.460,154.8,-65.28,-140.4,431.9
1.310,27.80,7.855,158.0,-68.60,-142.3,223.8
1.320,26.39,7.088,159.4,-72.16,-142.1,162.6
1.330,24.95,6.412,160.4,-66.29,-146.0,664.4
1.340,23.47,5.762,164.0,-63.22,-151.3,818.1
1.350,21.93,5.148,167.6,-55.66,-158.1,761.8
1.360,20.31,4.649,169.1,-49.98,-161.5,435.8
1.370,18.70,4.148,168.8,-48.91,-161.5,368.0
1.380,17.08,3.670,170.2,-43.65,-164.5,495.4
1.390,15.41,3.275,173.2,-40.24,-168.5,486.4
1.400,13.71,2.866,174.2,-37.15,-170.2,625.1
1.410,12.00,2.532,173.6,-27.71,-171.3,650.4
1.420,10.28,2.311,180.1,-25.96,-178.2,459.4
1.430,8.439,2.013,182.4,-24.63,-180.7,406.5
1.440,6.669,1.819,178.0,-16.31,-177.3,602.1
1.450,4.893,1.687,178.8,-12.85,-178.3,431.7
1.460,3.103,1.562,178.7,-8.630,-178.5,342.0
1.470,1.323,1.514,179.1,-5.004,-179.0,432.6
1.480,-0.478,1.462,180.5,-1.333,-180.5,338.3
1.490,-2.286,1.488,179.7,2.859,-179.7,501.2
1.500,-4.072,1.519,178.3,7.388,-178.1,817.2
1.510,-5.849,1.635,180.7,19.29,-179.6,1.358E3
1.520,-7.665,1.905,182.9,34.97,-179.5,393.2
1.530,-9.439,2.335,176.7,28.71,-174.3,474.3
1.540,-11.15,2.479,172.8,22.84,-171.3,192.4
1.550,-12.87,2.792,174.3,31.25,-171.5,671.9
1.560,-14.58,3.104,172.3,34.33,-168.9,363.6
1.570,-16.24,3.478,170.0,37.48,-165.8,397.5
1.580,-17.90,3.854,169.6,40.11,-164.8,370.9
1.590,-19.54,4.280,166.4,43.12,-160.7,589.5
1.600,-21.11,4.716,163.1,47.81,-156.0,568.4
1.610,-22.66,5.237,162.0,52.53,-153.2,335.5
1.620,-24.18,5.767,162.0,53.43,-152.9,410.0
1.630,-25.72,6.305,157.4,55.66,-147.2,454.0
1.640,-27.12,6.880,154.3,58.47,-142.8,496.2
1.650,-28.57,7.475,155.1,62.15,-142.1,445.3
1.660,-29.96,8.123,150.3,65.01,-135.5,734.0
1.670,-31.28,8.775,144.1,66.09,-128.0,487.4
1.680,-32.52,9.445,142.8,68.25,-125.5,463.7
1.690,-33.79,10.14,139.2,69.03,-120.9,394.3
1.700,-34.94,10.83,134.5,68.72,-115.7,506.7
1.710,-36.10,11.51,132.4,70.05,-112.4,454.2
1.720,-37.19,12.23,127.0,70.20,-105.8,470.4
1.730,-38.22,12.92,123.7,68.69,-102.9,418.2
1.740,-39.24,13.60,120.0,68.54,-98.49,510.6
1.750,-40.19,14.29,114.0,67.36,-91.99,447.9
1.760,-41.08,14.95,110.8,64.23,-90.33,326.2
1.770,-41.99,15.57,108.2,64.11,-87.17,296.7
1.780,-42.83,16.23,105.1,64.07,-83.30,477.8
1.790,-43.66,16.86,99.95,61.10,-79.10,560.7
1.800,-44.41,17.45,93.33,58.63,-72.62,438.2
1.810,-45.11,18.03,91.08,56.37,-71.54,290.4
1.820,-45.84,18.58,90.37,59.18,-68.30,401.5
1.830,-46.48,19.21,83.78,55.14,-63.08,696.2
1.840,-47.10,19.68,75.50,45.97,-59.90,600.7
1.850,-47.68,20.13,72.96,45.12,-57.33,317.5
1.860,-48.25,20.58,70.75,45.31,-54.34,310.1
1.870,-48.76,21.04,66.40,41.76,-51.63,612.5
1.880,-49.28,21.42,58.99,37.23,-45.76,539.4
1.890,-49.68,21.78,54.32,35.06,-41.49,484.4
1.900,-50.11,22.12,51.02,32.78,-39.09,406.2
1.910,-50.46,22.44,45.28,29.61,-34.26,378.8
1.920,-50.80,22.71,43.49,27.87,-33.38,347.1
1.930,-51.13,22.99,39.26,26.12,-29.31,605.5
1.940,-51.38,23.23,30.74,19.73,-23.58,471.1
1.950,-51.60,23.39,29.03,17.75,-22.97,432.4
1.960,-51.84,23.59,24.40,15.89,-18.52,503.6
1.970,-51.97,23.71,16.80,11.23,-12.50,603.0
1.980,-52.09,23.81,13.59,8.476,-10.62,255.3
1.990,-52.18,23.88,11.28,6.310,-9.347,406.8
2.000,-52.28,23.94,6.649,3.739,-5.498,457.9
2.010,-52.29,23.95,0.802,0.468,-0.651,400.7
2.020,-52.29,23.95,1.497,-1.489,-0.157,464.7
2.030,-52.30,23.92,7.838,-6.420,4.496,674.0
2.040,-52.20,23.82,15.68,-10.83,11.34,521.9
2.050,-52.07,23.70,17.66,-11.77,13.17,490.1
2.060,-51.94,23.59,24.21,-16.23,17.97,517.0
2.070,-51.71,23.38,29.98,-19.41,22.85,475.1
2.080,-51.48,23.20,32.12,-21.08,24.23,366.1
2.090,-51.23,22.96,37.84,-25.50,27.96,506.1
2.100,-50.92,22.69,42.30,-26.79,32.74,405.7
2.110,-50.57,22.42,45.71,-29.21,35.16,459.0
2.120,-50.22,22.10,51.16,-33.79,38.42,466.9
2.130,-49.80,21.75,55.45,-36.96,41.34,497.8
2.140,-49.39,21.36,60.15,-39.95,44.97,439.5
2.150,-48.90,20.95,65.05,-41.50,50.10,460.7
2.160,-48.39,20.53,68.54,-44.56,52.08,478.1
2.170,-47.86,20.06,72.45,-42.25,58.86,638.6
2.180,-47.21,19.69,78.63,-42.45,66.19,558.0
2.190,-46.54,19.21,83.99,-53.28,64.93,750.5
2.200,-45.91,18.62,87.76,-58.10,65.78,203.3
2.210,-45.22,18.05,88.70,-56.05,68.74,534.5
2.220,-44.54,17.50,94.86,-58.38,74.77,527.7
2.230,-43.73,16.88,101.6,-62.40,80.22,490.4
2.240,-42.94,16.25,102.8,-62.04,81.94,276.3
2.250,-42.09,15.64,107.3,-63.97,86.18,491.6
2.260,-41.21,14.98,112.4,-66.56,90.52,441.1
2.270,-40.28,14.31,116.3,-68.47,94.07,413.7
2.280,-39.33,13.61,119.7,-68.86,97.88,463.8
2.290,-38.32,12.93,125.0,-70.23,103.5,548.6
2.300,-37.26,12.20,129.8,-71.01,108.6,399.6
2.310,-36.15,11.51,131.9,-70.01,111.8,240.2
2.320,-35.03,10.80,132.1,-69.35,112.5,414.3
2.330,-33.90,10.12,138.0,-69.63,119.2,634.7
2.340,-32.64,9.409,145.2,-70.62,126.8,509.7
2.350,-31.36,8.710,145.1,-67.43,128.5,462.9
2.360,-30.07,8.060,147.2,-63.62,132.8,784.2
2.370,-28.71,7.437,153.7,-59.20,141.8,495.4
2.380,-27.23,6.876,153.8,-57.36,142.7,315.8
2.390,-25.85,6.290,155.5,-57.38,144.6,256.0
2.400,-24.34,5.728,160.1,-55.56,150.2,487.1
2.410,-22.85,5.179,159.0,-51.34,150.5,354.9
2.420,-21.33,4.702,159.2,-47.65,151.9,507.4
2.430,-19.81,4.225,160.8,-43.44,154.8,607.0
2.440,-18.24,3.833,164.7,-37.70,160.3,501.1
2.450,-16.60,3.471,166.5,-36.38,162.4,261.1
2.460,-14.99,3.105,166.8,-34.62,163.1,307.9
2.470,-13.34,2.779,168.8,-30.74,166.0,520.4
2.480,-11.67,2.491,167.2,-24.71,165.3,529.6
2.490,-10.03,2.285,172.6,-21.77,171.2,205.3
2.500,-8.245,2.055,171.0,-21.73,169.6,65.84
2.510,-6.642,1.850,168.1,-20.06,166.9,408.6
2.520,-4.907,1.654,173.1,-14.38,172.5,686.9
2.530,-3.192,1.563,171.3,-6.433,171.2,670.9
2.540,-1.482,1.525,171.7,-1.305,171.7,382.4
2.550,0.241,1.537,172.9,1.327,172.9,346.8
2.560,1.976,1.552,172.2,4.864,172.1,465.1
2.570,3.684,1.634,169.9,10.69,169.6,466.0
2.580,5.368,1.766,170.6,14.12,170.0,489.1
2.590,7.084,1.916,167.7,18.87,166.7,372.9
2.600,8.701,2.143,168.5,22.53,167.0,241.1
2.610,10.42,2.367,171.2,23.00,169.6,365.1
2.620,12.09,2.603,166.2,28.90,163.6,786.8
2.630,13.70,2.945,161.5,34.81,157.7,587.1
2.640,15.25,3.299,159.3,36.54,155.1,391.4
2.650,16.80,3.676,158.4,40.41,153.1,486.9
2.660,18.31,4.108,156.4,45.24,149.7,425.7
2.670,19.79,4.581,153.9,46.30,146.8,208.9
2.680,21.25,5.034,153.7,47.19,146.2,398.3
2.690,22.72,5.525,152.7,52.93,143.2,573.1
2.700,24.11,6.092,148.9,56.73,137.7,621.4
2.710,25.47,6.659,145.9,58.95,133.4,671.4
2.720,26.78,7.271,142.3,64.64,126.7,501.2
2.730,28.01,7.952,137.9,62.57,122.9,280.5
2.740,29.24,8.522,136.2,60.14,122.2,272.4
2.750,30.45,9.155,133.5,62.38,118.1,329.5
2.760,31.60,9.770,130.4,61.50,115.0,376.4
2.770,32.75,10.38,128.1,62.79,111.6,443.6
2.780,33.83,11.03,123.4,63.76,105.6,474.4
2.790,34.86,11.66,119.8,62.54,102.2,398.0
2.800,35.87,12.28,116.0,61.50,98.34,328.0
2.810,36.83,12.89,113.0,60.66,95.33,378.8
2.820,37.78,13.49,109.2,58.78,92.03,419.0
2.830,38.67,14.07,104.4,58.24,86.70,567.8
2.840,39.52,14.65,98.86,56.02,81.45,336.3
2.850,40.30,15.19,97.00,55.67,79.44,282.7
2.860,41.10,15.77,95.68,56.78,77.01,407.4
2.870,41.84,16.32,88.19,51.89,71.31,562.7
2.880,42.53,16.81,83.95,50.24,67.26,467.0
2.890,43.19,17.33,79.86,47.87,63.92,473.5
2.900,43.81,17.76,73.80,43.77,59.42,421.8
2.910,44.37,18.20,71.41,44.16,56.11,198.3
2.920,44.93,18.65,71.35,44.48,55.79,249.8
2.930,45.49,19.09,67.20,40.75,53.43,532.1
2.940,46.00,19.46,60.04,35.89,48.13,514.5
2.950,46.45,19.81,56.72,34.86,44.74,249.5
2.960,46.89,20.16,55.62,34.22,43.85,373.4
2.970,47.33,20.49,49.84,30.06,39.76,512.3
2.980,47.69,20.76,44.17,27.55,34.52,541.3
2.990,48.02,21.04,40.36,26.56,30.40,369.0
3.000,48.30,21.29,36.16,23.25,27.69,468.5
3.010,48.57,21.51,32.16,18.88,26.04,456.3
3.020,48.82,21.67,28.26,14.17,24.44,457.5
3.030,49.06,21.79,24.71,11.02,22.12,461.0
3.040,49.26,21.89,18.92,10.26,15.90,704.6
3.050,49.38,22.00,13.12,10.51,7.847,470.4
3.060,49.42,22.10,8.986,6.032,6.661,328.6
3.070,49.51,22.12,8.398,2.906,7.879,396.4
3.080,49.58,22.16,2.305,0.560,2.236,576.7
3.090,49.56,22.13,4.329,-2.732,-3.359,498.1
3.100,49.51,22.10,7.500,-6.604,-3.555,425.4
3.110,49.49,22.00,12.80,-11.18,-6.248,459.6
3.120,49.38,21.88,16.91,-12.12,-11.80,544.1
3.130,49.25,21.76,20.39,-12.07,-16.43,451.6
3.140,49.05,21.64,25.81,-16.23,-20.07,566.8
3.150,48.85,21.43,31.71,-22.14,-22.71,467.3
3.160,48.60,21.20,34.91,-23.98,-25.37,432.3
3.170,48.34,20.95,38.73,-24.18,-30.26,436.0
3.180,48.00,20.71,44.07,-28.01,-34.02,583.3
3.190,47.66,20.39,48.55,-27.45,-40.04,803.9
3.200,47.19,20.16,58.63,-28.70,-51.12,546.8
3.210,46.64,19.82,61.57,-35.47,-50.32,700.0
3.220,46.19,19.45,61.22,-41.02,-45.44,430.0
3.230,45.73,19.00,68.34,-45.27,-51.20,453.2
3.240,45.16,18.55,70.54,-43.26,-55.73,425.7
3.250,44.62,18.13,73.59,-45.09,-58.16,448.0
3.260,44.00,17.65,80.57,-48.20,-64.56,532.6
3.270,43.32,17.17,83.65,-48.12,-68.43,281.2
3.280,42.63,16.68,85.79,-50.32,-69.48,353.3
3.290,41.94,16.16,90.33,-53.74,-72.60,405.2
3.300,41.18,15.61,94.49,-55.00,-76.83,467.9
3.310,40.40,15.06,98.69,-56.44,-80.96,387.6
3.320,39.56,14.48,102.3,-57.15,-84.88,418.0
3.330,38.70,13.92,105.6,-57.25,-88.72,364.9
3.340,37.79,13.34,109.8,-59.26,-92.42,355.8
3.350,36.85,12.73,112.5,-61.49,-94.17,349.7
3.360,35.90,12.11,116.3,-61.55,-98.70,392.6
3.370,34.88,11.50,120.3,-62.69,-102.7,394.5
3.380,33.85,10.85,123.2,-63.30,-105.7,414.1
3.390,32.77,10.24,126.6,-60.50,-111.2,495.0
3.400,31.63,9.641,129.6,-59.52,-115.1,413.4
3.410,30.46,9.046,132.5,-58.65,-118.8,500.6
3.420,29.25,8.468,135.8,-55.09,-124.2,433.2
3.430,27.98,7.944,140.7,-61.21,-126.7,347.3
3.440,26.72,7.244,142.7,-64.59,-127.3,354.0
3.450,25.44,6.652,146.0,-59.57,-133.2,517.5
3.460,24.05,6.053,147.7,-58.02,-135.9,576.2
3.470,22.72,5.492,148.7,-51.73,-139.4,625.2
3.480,21.26,5.018,150.8,-45.95,-143.6,510.6
3.490,19.85,4.572,152.2,-45.25,-145.3,231.1
3.500,18.36,4.113,155.6,-44.70,-149.0,398.6
3.510,16.87,3.678,156.8,-40.97,-151.4,524.5
3.520,15.33,3.294,159.0,-35.67,-154.9,385.9
3.530,13.77,2.965,159.8,-34.14,-156.1,333.4
3.540,12.21,2.611,160.5,-31.14,-157.5,909.4
3.550,10.62,2.342,164.5,-17.54,-163.6,365.2
3.560,8.936,2.260,162.4,-20.24,-161.1,82.90
3.570,7.395,1.937,163.2,-23.39,-161.5,128.0
3.580,5.705,1.792,166.3,-13.78,-165.8,664.5
3.590,4.080,1.662,164.1,-11.99,-163.6,309.7
3.600,2.433,1.553,164.6,-8.187,-164.4,422.6
3.610,0.792,1.498,164.4,-3.284,-164.4,407.9
3.620,-0.855,1.487,165.8,-8.718E-2,-165.8,281.8
3.630,-2.524,1.496,165.0,2.160,-165.0,366.9
3.640,-4.154,1.530,162.2,6.324,-162.1,648.7
3.650,-5.766,1.623,166.0,14.95,-165.3,1.291E3
3.660,-7.461,1.829,165.8,31.72,-162.7,151.5
3.670,-9.020,2.257,162.0,22.64,-160.4,628.4
3.680,-10.67,2.282,162.4,11.04,-162.0,62.28
3.690,-12.26,2.478,160.6,25.93,-158.5,931.8
3.700,-13.84,2.800,159.9,29.84,-157.1,238.2
3.710,-15.40,3.074,157.2,27.28,-154.8,222.6
3.720,-16.94,3.346,155.8,31.15,-152.7,521.2
3.730,-18.46,3.697,155.6,37.70,-151.0,530.6
3.740,-19.96,4.100,154.3,41.03,-148.7,507.1
3.750,-21.43,4.518,150.9,44.48,-144.2,555.2
3.760,-22.84,4.990,147.0,47.74,-139.0,503.2
3.770,-24.21,5.473,146.8,51.43,-137.4,387.1
3.780,-25.59,6.018,143.5,52.87,-133.4,732.8
3.790,-26.88,6.530,142.0,61.24,-128.1,256.6
3.800,-28.15,7.243,141.9,53.70,-131.3,430.8
3.810,-29.51,7.604,134.1,46.29,-125.8,524.7
3.820,-30.67,8.169,131.1,58.45,-117.3,1.023E3
3.830,-31.85,8.774,129.9,60.86,-114.7,338.3
3.840,-32.96,9.386,127.0,62.25,-110.7,422.6
3.850,-34.07,10.02,123.2,60.57,-107.3,434.8
3.860,-35.11,10.60,117.4,57.81,-102.2,510.9
3.870,-36.11,11.17,114.1,59.19,-97.50,415.5
3.880,-37.06,11.78,110.6,59.03,-93.49,421.0
3.890,-37.98,12.36,106.1,56.54,-89.79,348.9
3.900,-38.85,12.91,103.3,56.62,-86.44,422.2
3.910,-39.71,13.49,99.64,56.59,-82.01,576.2
3.920,-40.49,14.04,91.81,52.80,-75.10,599.0
3.930,-41.21,14.54,87.37,51.56,-70.54,394.9
3.940,-41.90,15.07,84.92,50.52,-68.26,354.3
3.950,-42.58,15.55,80.33,48.35,-64.15,432.2
3.960,-43.19,16.04,76.24,46.36,-60.52,410.4
3.970,-43.79,16.48,72.40,44.18,-57.36,349.4
3.980,-44.33,16.93,69.16,43.08,-54.10,424.7
3.990,-44.87,17.34,64.58,40.59,-50.23,465.1
4.000,-45.34,17.74,59.37,37.45,-46.07,916.4
4.010,-45.79,18.09,48.55,33.81,-34.83,866.9
4.020,-46.03,18.41,50.57,42.75,-27.02,419.4
4.030,-46.33,18.95,50.92,41.70,-29.23,654.7
4.040,-46.62,19.25,38.06,25.54,-28.21,1.045E3
4.050,-46.89,19.46,36.18,21.17,-29.34,768.2
4.060,-47.21,19.67,38.74,14.11,-36.09,265.2
4.070,-47.62,19.74,35.32,13.05,-32.83,753.7
4.080,-47.86,19.93,24.41,15.42,-18.92,1.003E3
4.090,-47.99,20.05,17.12,11.77,-12.43,485.0
4.100,-48.11,20.17,15.77,10.94,-11.36,383.0
4.110,-48.22,20.27,10.02,6.377,-7.734,380.0
4.120,-48.27,20.29,6.750,4.073,-5.383,311.6
4.130,-48.33,20.35,5.862,4.913,-3.198,285.5
4.140,-48.33,20.39,2.677,2.480,1.007,686.8
4.150,-48.31,20.40,7.338,-4.962,5.407,691.9
4.160,-48.22,20.29,14.20,-9.359,10.67,575.9
4.170,-48.10,20.21,17.79,-11.21,13.81,360.4
4.180,-47.95,20.07,21.69,-13.44,17.03,401.5
4.190,-47.75,19.94,25.23,-13.50,21.32,385.9
4.200,-47.52,19.80,27.44,-12.01,24.68,750.0
4.210,-47.26,19.70,37.92,-15.54,34.59,672.2
4.220,-46.83,19.49,44.00,-23.35,37.29,622.4
4.230,-46.52,19.24,42.99,-27.31,33.20,543.9
4.240,-46.16,18.94,46.20,-32.27,33.07,525.8
4.250,-45.85,18.59,51.97,-36.77,36.72,459.1
4.260,-45.43,18.21,56.60,-36.59,43.18,547.0
4.270,-44.99,17.86,59.27,-36.64,46.59,391.5
4.280,-44.50,17.47,64.60,-39.53,51.10,561.6
4.290,-43.97,17.07,70.12,-42.73,55.59,482.9
4.300,-43.39,16.62,74.73,-46.37,58.61,373.7
4.310,-42.80,16.14,77.14,-46.51,61.54,367.3
4.320,-42.15,15.69,81.12,-46.79,66.26,477.1
4.330,-41.47,15.20,86.66,-50.89,70.14,527.4
4.340,-40.75,14.67,91.74,-52.64,75.14,359.2
4.350,-39.97,14.15,94.03,-54.68,76.49,304.3
4.360,-39.22,13.58,97.10,-57.23,78.44,399.8
4.370,-38.40,13.01,102.3,-56.87,85.01,591.2
4.380,-37.52,12.44,106.9,-57.32,90.18,397.1
4.390,-36.60,11.86,110.0,-58.92,92.94,238.8
4.400,-35.66,11.26,111.4,-59.96,93.93,208.7
4.410,-34.72,10.66,112.7,-57.88,96.73,438.0
4.420,-33.73,10.10,118.5,-59.18,102.7,624.4
4.430,-32.66,9.478,126.1,-64.20,108.5,405.7
4.440,-31.56,8.820,126.5,-61.12,110.7,429.8
4.450,-30.45,8.255,127.1,-56.48,113.8,883.3
4.460,-29.28,7.691,132.5,-49.80,122.8,514.4
4.470,-27.99,7.259,136.7,-53.52,125.8,254.6
4.480,-26.77,6.620,137.4,-58.06,124.5,309.4
4.490,-25.50,6.098,141.7,-51.89,131.9,628.2
4.500,-24.13,5.583,143.5,-49.63,134.6,391.0
4.510,-22.81,5.106,142.7,-45.95,135.1,402.4
4.520,-21.43,4.664,148.1,-43.93,141.5,490.0
4.530,-19.98,4.227,149.1,-40.67,143.4,344.3
4.540,-18.56,3.850,150.7,-38.60,145.6,400.6
4.550,-17.07,3.455,153.1,-35.37,149.0,433.6
4.560,-15.58,3.143,153.2,-30.37,150.2,470.5
4.570,-14.07,2.848,154.2,-27.04,151.8,347.7
4.580,-12.54,2.602,156.4,-24.53,154.5,689.6
4.590,-10.98,2.357,150.3,-15.42,149.5,290.1
4.600,-9.553,2.294,157.2,-21.67,155.7,380.1
4.610,-7.863,1.924,163.9,-26.68,161.7,374.0
4.620,-6.318,1.760,159.5,-16.87,158.6,877.9
4.630,-4.690,1.586,161.1,-11.90,160.7,648.2
4.640,-3.104,1.522,157.0,-2.791,157.0,647.3
4.650,-1.550,1.530,155.6,0.365,155.6,249.6
4.660,7.504E-3,1.530,155.4,1.009,155.4,158.0
4.670,1.558,1.551,156.5,3.438,156.5,340.4
4.680,3.138,1.598,156.8,7.613,156.6,412.5
4.690,4.691,1.703,155.2,11.99,154.7,402.9
4.700,6.232,1.838,155.9,15.33,155.1,774.9
4.710,7.793,2.009,155.9,26.36,153.7,242.2
4.720,9.305,2.365,153.6,23.61,151.8,110.8
4.730,10.83,2.481,153.4,19.60,152.2,126.7
4.740,12.35,2.757,152.7,28.92,149.9,774.1
4.750,13.83,3.060,149.8,32.86,146.1,404.9
4.760,15.27,3.415,147.6,34.62,143.5,291.9
4.770,16.70,3.752,147.6,36.74,142.9,333.5
4.780,18.13,4.149,146.2,40.92,140.4,545.1
4.790,19.51,4.571,140.2,42.62,133.5,375.3
4.800,20.80,5.002,140.5,45.01,133.1,323.6
4.810,22.17,5.471,140.7,48.27,132.1,511.1
4.820,23.44,5.967,134.2,51.39,123.9,527.3
4.830,24.65,6.499,132.5,52.45,121.6,338.3
4.840,25.88,7.016,130.4,53.06,119.1,361.8
4.850,27.03,7.560,126.9,55.81,113.9,310.1
4.860,28.15,8.133,127.1,56.58,113.9,229.5
4.870,29.30,8.691,124.0,56.25,110.5,442.3
4.880,30.37,9.258,118.1,56.10,103.9,573.4
4.890,31.38,9.814,113.3,53.95,99.63,485.4
4.900,32.36,10.34,108.4,52.16,94.98,295.5
4.910,33.28,10.86,107.0,52.09,93.51,250.6
4.920,34.23,11.38,106.2,53.99,91.51,262.4
4.930,35.11,11.94,102.1,52.72,87.39,294.8
4.940,35.98,12.43,100.1,51.17,85.98,315.6
4.950,36.83,12.96,96.83,51.21,82.18,430.8
4.960,37.62,13.46,91.07,48.76,76.91,551.5
4.970,38.37,13.94,86.28,46.92,72.40,437.9
4.980,39.07,14.40,82.17,45.43,68.48,368.6
4.990,39.74,14.84,79.42,44.77,65.60,233.7
5.000,40.38,15.29,77.45,43.70,63.94,316.1
5.010,41.02,15.72,73.71,42.15,60.47,392.5
5.020,41.59,16.13,69.02,39.72,56.44,575.2
5.030,42.15,16.51,62.90,34.90,52.32,475.2
5.040,42.64,16.83,58.47,32.79,48.41,431.8
5.050,43.12,17.17,55.74,32.98,44.94,333.8
5.060,43.53,17.49,51.18,29.18,42.05,410.3
5.070,43.96,17.75,47.73,27.59,38.94,341.1
5.080,44.31,18.04,44.35,26.73,35.39,423.3
5.090,44.67,18.29,39.91,24.19,31.73,371.9
5.100,44.95,18.53,36.47,22.58,28.64,387.4
5.110,45.24,18.74,32.92,18.51,27.23,429.4
5.120,45.49,18.90,28.29,14.72,24.16,541.7
5.130,45.72,19.03,22.54,12.77,18.57,640.2
5.140,45.86,19.15,15.59,10.49,11.53,558.5
5.150,45.95,19.24,11.86,8.836,7.917,400.2
5.160,46.02,19.33,8.261,5.576,6.095,432.0
5.170,46.07,19.35,3.013,1.330,2.704,421.0
5.180,46.08,19.36,0.375,-0.111,-0.358,408.3
5.190,46.07,19.35,4.609,-0.604,-4.569,374.1
5.200,45.99,19.34,8.199,-5.124,-6.401,504.1
5.210,45.94,19.25,13.25,-10.41,-8.195,463.0
5.220,45.82,19.14,17.93,-11.01,-14.15,601.4
5.230,45.66,19.03,23.17,-12.01,-19.81,606.7
5.240,45.43,18.90,29.90,-15.19,-25.75,453.6
5.250,45.14,18.72,32.58,-18.67,-26.70,283.9
5.260,44.89,18.52,33.79,-20.54,-26.83,295.2
5.270,44.60,18.31,38.61,-22.07,-31.68,501.0
5.280,44.26,18.08,43.94,-24.87,-36.23,395.6
5.290,43.88,17.82,46.36,-28.39,-36.65,351.9
5.300,43.53,17.51,49.92,-30.80,-39.28,434.7
5.310,43.09,17.20,55.49,-31.72,-45.53,445.0
5.320,42.61,16.88,57.93,-32.17,-48.18,399.5
5.330,42.13,16.56,62.55,-36.20,-51.01,418.6
5.340,41.59,16.15,67.31,-39.54,-54.47,542.8
5.350,41.04,15.77,72.21,-41.48,-59.10,458.5
5.360,40.41,15.32,77.53,-44.46,-63.52,244.4
5.370,39.77,14.88,76.68,-43.00,-63.49,148.5
5.380,39.14,14.46,78.64,-43.15,-65.74,567.7
5.390,38.46,14.01,88.34,-48.74,-73.68,647.0
5.400,37.67,13.49,93.03,-50.56,-78.09,243.9
5.410,36.89,13.00,91.74,-49.22,-77.42,280.0
5.420,36.12,12.51,97.61,-51.55,-82.89,321.8
5.430,35.24,11.97,99.84,-51.16,-85.74,373.3
5.440,34.41,11.48,102.2,-52.46,-87.75,440.8
5.450,33.48,10.92,110.4,-55.81,-95.25,421.2
5.460,32.50,10.37,110.4,-53.80,-96.37,314.6
5.470,31.55,9.846,113.2,-53.50,-99.75,334.8
5.480,30.51,9.296,118.3,-55.01,-104.7,303.8
5.490,29.46,8.746,117.5,-52.78,-105.0,251.9
5.500,28.41,8.240,121.6,-53.44,-109.3,503.6
5.510,27.27,7.677,128.5,-56.00,-115.6,379.9
5.520,26.09,7.120,128.7,-53.44,-117.1,250.2
5.530,24.93,6.609,129.0,-51.73,-118.2,288.4
5.540,23.73,6.086,133.0,-51.46,-122.6,615.2
5.550,22.48,5.579,138.1,-47.83,-129.6,585.9
5.560,21.14,5.129,137.0,-41.52,-130.6,459.0
5.570,19.87,4.749,138.2,-39.50,-132.4,305.7
5.580,18.49,4.339,143.3,-39.34,-137.8,392.2
5.590,17.11,3.962,143.6,-36.52,-138.9,261.5
5.600,15.71,3.609,144.2,-34.47,-140.0,201.8
5.610,14.31,3.273,144.0,-32.81,-140.2,383.9
5.620,12.91,2.953,146.4,-28.34,-143.6,557.7
5.630,11.44,2.706,148.5,-22.60,-146.8,421.6
5.640,9.972,2.501,151.2,-22.87,-149.5,178.6
5.650,8.450,2.249,152.5,-22.26,-150.9,270.9
5.660,6.954,2.056,151.0,-16.83,-150.1,464.3
5.670,5.448,1.912,151.2,-12.91,-150.6,324.4
5.680,3.942,1.797,151.8,-10.60,-151.4,367.2
5.690,2.419,1.700,152.0,-6.106,-151.9,376.2
5.700,0.904,1.675,151.5,-2.213,-151.4,357.6
5.710,-0.610,1.656,153.3,0.119,-153.3,250.0
5.720,-2.162,1.678,153.1,3.137,-153.1,293.2
5.730,-3.672,1.719,151.1,5.582,-151.0,599.2
5.740,-5.183,1.789,155.5,14.22,-154.9,477.2
5.750,-6.769,2.003,151.4,17.14,-150.4,418.0
5.760,-8.191,2.132,149.7,19.05,-148.5,301.2
5.770,-9.738,2.384,149.6,20.10,-148.3,177.2
5.780,-11.16,2.534,145.0,19.22,-143.8,328.7
5.790,-12.61,2.768,146.6,25.29,-144.4,391.4
5.800,-14.04,3.040,146.9,26.88,-144.4,101.1
5.810,-15.50,3.306,146.4,26.60,-144.0,222.5
5.820,-16.92,3.572,144.2,29.89,-141.1,436.8
5.830,-18.32,3.904,141.3,33.05,-137.4,517.5
5.840,-19.67,4.233,139.0,36.74,-134.0,378.4
5.850,-21.00,4.638,139.2,40.44,-133.2,486.3
5.860,-22.34,5.042,134.1,41.91,-127.4,496.6
5.870,-23.55,5.476,129.1,42.98,-121.7,262.8
5.880,-24.77,5.901,130.1,42.42,-123.0,366.4
5.890,-26.01,6.325,123.9,43.92,-115.9,523.8
5.900,-27.09,6.780,124.7,50.82,-113.8,308.2
5.910,-28.29,7.341,125.7,50.46,-115.2,202.5
5.920,-29.39,7.789,118.4,48.60,-108.0,738.3
5.930,-30.45,8.313,113.5,51.72,-101.1,530.7
5.940,-31.41,8.823,111.3,53.08,-97.79,291.8
5.950,-32.40,9.375,111.3,54.69,-96.93,390.7
5.960,-33.35,9.917,104.3,52.85,-89.93,488.9
5.970,-34.20,10.43,101.2,53.51,-85.91,386.6
5.980,-35.07,10.99,98.96,52.76,-83.72,425.5
5.990,-35.88,11.49,91.72,48.56,-77.81,542.8
6.000,-36.63,11.96,88.36,49.54,-73.17,210.4
6.010,-37.34,12.48,88.27,49.28,-73.23,174.6
6.020,-38.09,12.94,85.78,48.03,-71.07,363.9
6.030,-38.76,13.44,80.64,46.74,-65.71,755.9
6.040,-39.41,13.88,71.75,42.33,-57.94,467.8
6.050,-39.92,14.28,69.41,42.01,-55.26,415.8
6.060,-40.51,14.72,66.50,39.61,-53.42,422.8
6.070,-40.99,15.08,58.62,35.42,-46.71,506.2
6.080,-41.45,15.43,57.14,34.80,-45.33,184.5
6.090,-41.90,15.77,55.37,34.27,-43.49,220.0
6.100,-42.32,16.11,52.61,32.47,-41.40,487.6
6.110,-42.72,16.42,46.21,29.09,-35.91,686.5
6.120,-43.03,16.69,38.19,25.04,-28.83,552.6
6.130,-43.30,16.92,35.14,23.04,-26.52,188.3
6.140,-43.56,17.16,35.42,21.99,-27.77,353.1
6.150,-43.86,17.36,29.38,17.33,-23.73,582.3
6.160,-44.04,17.50,22.29,12.52,-18.44,529.1
6.170,-44.22,17.61,19.79,11.03,-16.43,205.6
6.180,-44.37,17.72,17.89,11.11,-14.03,464.9
6.190,-44.50,17.84,11.61,6.451,-9.650,650.7
6.200,-44.56,17.85,3.687,1.017,-3.544,555.6
6.210,-44.58,17.86,1.182,-4.894E-2,-1.181,192.6
6.220,-44.58,17.85,0.861,-0.783,-0.358,110.4
6.230,-44.58,17.84,1.197,-0.850,0.843,467.4
6.240,-44.57,17.83,8.643,-5.759,6.445,642.6
6.250,-44.45,17.72,15.95,-11.02,11.53,459.2
6.260,-44.34,17.61,16.82,-11.46,12.31,445.5
6.270,-44.21,17.50,24.02,-16.07,17.85,453.6
6.280,-43.98,17.29,28.03,-18.28,21.25,412.0
6.290,-43.78,17.13,29.82,-18.64,23.27,261.4
6.300,-43.51,16.92,34.79,-22.37,26.64,431.9
6.310,-43.25,16.68,37.66,-24.36,28.72,540.8
6.320,-42.94,16.43,45.36,-28.02,35.67,658.4
6.330,-42.54,16.12,51.87,-32.64,40.31,520.9
6.340,-42.13,15.78,55.02,-34.79,42.62,267.8
6.350,-41.68,15.43,57.56,-35.38,45.40,233.7
6.360,-41.23,15.07,58.77,-35.38,46.93,436.7
6.370,-40.75,14.72,65.53,-39.29,52.44,434.7
6.380,-40.18,14.29,69.28,-40.88,55.94,407.5
6.390,-39.63,13.90,71.47,-41.40,58.25,417.4
6.400,-39.01,13.46,78.63,-45.29,64.28,597.0
6.410,-38.34,13.00,83.15,-46.23,69.11,331.1
6.420,-37.63,12.53,84.93,-46.70,70.95,311.6
6.430,-36.92,12.06,88.26,-47.62,74.31,452.3
6.440,-36.14,11.58,94.40,-50.11,80.01,426.4
6.450,-35.32,11.06,96.89,-50.86,82.47,178.8
6.460,-34.49,10.56,97.36,-50.91,82.99,391.4
6.470,-33.66,10.04,103.7,-52.66,89.29,618.7
6.480,-32.71,9.510,110.6,-53.91,96.54,572.1
6.490,-31.73,8.963,112.4,-51.82,99.77,199.7
6.500,-30.71,8.474,112.4,-50.44,100.4,351.9
6.510,-29.72,7.955,116.6,-50.85,105.0,621.8
6.520,-28.61,7.457,123.1,-46.81,113.9,472.6
6.530,-27.45,7.018,123.5,-46.82,114.3,111.3
6.540,-26.33,6.520,123.7,-47.36,114.3,270.6
6.550,-25.16,6.071,128.1,-44.41,120.1,378.6
6.560,-23.92,5.632,129.9,-44.52,122.1,324.8
6.570,-22.72,5.181,131.8,-42.59,124.7,283.1
6.580,-21.43,4.780,134.8,-40.86,128.4,383.3
6.590,-20.15,4.364,135.4,-38.70,129.7,396.1
6.600,-18.84,4.006,136.6,-33.25,132.5,430.0
6.610,-17.50,3.699,137.9,-31.14,134.4,381.5
6.620,-16.15,3.383,139.7,-28.06,136.8,260.9
6.630,-14.76,3.137,141.7,-27.02,139.1,222.8
6.640,-13.37,2.843,141.8,-26.13,139.4,263.4
6.650,-11.98,2.615,145.0,-23.41,143.1,800.1
6.660,-10.50,2.375,141.0,-12.45,140.5,204.5
6.670,-9.166,2.366,140.7,-14.07,140.0,149.1
6.680,-7.705,2.093,145.5,-21.62,143.8,412.7
6.690,-6.289,1.933,145.5,-15.57,144.6,593.2
6.700,-4.812,1.782,147.8,-11.21,147.3,474.4
6.710,-3.342,1.709,145.9,-5.415,145.8,477.3
6.720,-1.897,1.674,144.9,-2.128,144.9,239.3
6.730,-0.445,1.666,145.3,-0.570,145.3,199.4
6.740,1.010,1.662,145.5,1.391,145.5,298.9
6.750,2.465,1.694,144.8,5.534,144.7,447.7
6.760,3.905,1.773,144.0,10.26,143.7,334.9
6.770,5.338,1.899,142.9,12.17,142.4,171.9
6.780,6.753,2.016,142.5,12.77,142.0,517.5
6.790,8.178,2.155,144.0,21.77,142.4,320.7
6.800,9.601,2.452,142.1,22.13,140.4,177.4
6.810,10.99,2.597,140.2,19.70,138.8,153.3
6.820,12.38,2.846,140.1,24.24,137.9,534.0
6.830,13.74,3.082,137.2,27.90,134.3,364.9
6.840,15.06,3.404,136.3,31.29,132.7,275.0
6.850,16.40,3.708,134.3,30.34,130.8,241.5
6.860,17.68,4.011,131.9,33.17,127.6,448.3
6.870,18.95,4.371,131.3,38.00,125.7,349.3
6.880,20.19,4.771,128.5,38.46,122.6,186.1
6.890,21.40,5.141,127.9,38.71,121.9,293.2
6.900,22.63,5.545,125.5,41.44,118.5,520.0
6.910,23.77,5.969,120.1,43.75,111.8,444.8
6.920,24.87,6.420,119.7,45.81,110.5,251.7
6.930,25.98,6.886,118.4,46.74,108.7,585.2
6.940,27.04,7.355,114.5,52.83,101.6,394.2
6.950,28.02,7.942,111.4,49.66,99.67,338.9
6.960,29.04,8.348,107.8,44.58,98.18,392.5
6.970,29.98,8.834,103.7,47.78,92.07,619.3
6.980,30.88,9.303,97.49,45.37,86.29,376.4
6.990,31.71,9.741,95.25,44.67,84.13,193.2
7.000,32.56,10.20,95.66,46.40,83.65,262.1
7.010,33.38,10.67,91.05,45.83,78.68,464.7
7.020,34.14,11.11,86.97,45.76,73.96,353.5
7.030,34.86,11.58,84.97,45.47,71.78,351.6
7.040,35.57,12.02,80.16,42.12,68.21,458.0
7.050,36.22,12.43,75.26,40.89,63.18,343.4
7.060,36.83,12.84,73.67,40.68,61.42,342.7
7.070,37.45,13.24,69.19,37.38,58.22,427.3
7.080,38.00,13.59,64.21,34.05,54.44,425.1
7.090,38.54,13.92,61.49,33.83,51.34,357.5
7.100,39.03,14.26,57.54,33.40,46.85,364.0
7.110,39.48,14.59,54.15,30.01,45.08,379.9
7.120,39.93,14.86,50.19,29.00,40.97,420.0
7.130,40.30,15.17,45.77,27.92,36.27,446.2
7.140,40.65,15.42,41.43,23.91,33.83,422.9
7.150,40.97,15.65,37.21,22.63,29.54,404.3
7.160,41.24,15.88,33.43,19.32,27.28,404.2
7.170,41.52,16.03,29.24,17.35,23.53,404.4
7.180,41.71,16.22,25.22,15.79,19.67,407.7
7.190,41.91,16.35,21.28,12.23,17.42,442.2
7.200,42.06,16.47,16.45,11.00,12.23,434.3
7.210,42.16,16.57,12.32,7.074,10.09,404.2
7.220,42.26,16.61,8.699,5.771,6.509,334.4
7.230,42.29,16.68,5.428,3.880,3.796,313.5
7.240,42.34,16.69,3.284,0.153,3.280,351.2
7.250,42.35,16.69,2.315,0.380,-2.284,379.0
7.260,42.29,16.69,5.184,-2.851,-4.330,421.9
7.270,42.27,16.63,9.441,-6.036,-7.260,438.2
7.280,42.15,16.57,14.38,-8.398,-11.67,486.7
7.290,42.03,16.46,18.79,-12.26,-14.23,348.0
7.300,41.86,16.33,21.85,-12.71,-17.78,388.3
7.310,41.68,16.21,25.70,-15.73,-20.33,421.0
7.320,41.46,16.01,30.74,-20.64,-22.78,473.5
7.330,41.22,15.80,34.37,-19.11,-28.57,501.1
7.340,40.89,15.63,39.23,-19.59,-33.99,389.4
7.350,40.54,15.40,42.27,-24.11,-34.72,435.8
7.360,40.19,15.15,45.20,-27.74,-35.69,396.6
7.370,39.83,14.85,50.17,-29.24,-40.76,432.7
7.380,39.38,14.56,53.78,-29.12,-45.21,358.2
7.390,38.92,14.27,56.55,-32.06,-46.58,339.5
7.400,38.45,13.92,60.81,-34.26,-50.24,497.7
7.410,37.92,13.58,66.07,-35.29,-55.86,416.0
7.420,37.33,13.22,69.35,-36.61,-58.89,343.6
7.430,36.74,12.85,71.96,-39.53,-60.12,285.9
7.440,36.13,12.43,75.66,-40.85,-63.69,449.4
7.450,35.47,12.03,79.98,-40.71,-68.85,354.6
7.460,34.75,11.61,83.37,-43.76,-70.96,373.3
7.470,34.05,11.16,86.55,-45.61,-73.56,335.9
7.480,33.28,10.70,90.46,-45.09,-78.43,446.2
7.490,32.48,10.26,94.26,-46.53,-81.97,331.7
7.500,31.64,9.769,97.53,-47.63,-85.11,268.5
7.510,30.78,9.303,98.59,-46.08,-87.16,359.4
7.520,29.90,8.848,103.1,-46.72,-91.90,409.2
7.530,28.94,8.368,106.4,-45.64,-96.08,570.7
7.540,27.97,7.935,112.8,-50.61,-100.8,348.8
7.550,26.92,7.356,116.0,-52.07,-103.6,278.2
7.560,25.90,6.894,114.8,-46.75,-104.9,417.1
7.570,24.83,6.421,118.0,-46.04,-108.6,281.6
7.580,23.73,5.973,118.5,-44.16,-109.9,452.4
7.590,22.63,5.538,123.6,-42.61,-116.0,536.7
7.600,21.41,5.121,126.3,-38.11,-120.4,344.9
7.610,20.22,4.776,125.3,-36.80,-119.8,86.04
7.620,19.01,4.385,128.2,-38.69,-122.2,244.7
7.630,17.77,4.002,129.8,-35.63,-124.8,421.6
7.640,16.52,3.672,131.0,-31.52,-127.2,407.8
7.650,15.23,3.372,133.2,-29.30,-129.9,317.5
7.660,13.92,3.086,134.6,-27.31,-131.9,335.5
7.670,12.59,2.825,136.5,-24.38,-134.3,495.9
7.680,11.23,2.599,135.1,-17.87,-134.0,217.6
7.690,9.915,2.468,137.5,-19.48,-136.1,78.69
7.700,8.511,2.209,138.8,-20.44,-137.3,189.4
7.710,7.169,2.059,138.0,-14.70,-137.2,440.0
7.720,5.767,1.915,139.1,-12.61,-138.6,273.6
7.730,4.397,1.807,138.6,-9.392,-138.3,317.1
7.740,3.001,1.727,139.2,-6.359,-139.0,322.8
7.750,1.616,1.680,139.1,-3.021,-139.0,287.6
7.760,0.221,1.667,138.9,-0.488,-138.9,221.2
7.770,-1.162,1.670,138.4,1.246,-138.3,190.7
7.780,-2.546,1.692,138.5,3.262,-138.4,192.9
7.790,-3.931,1.735,138.6,5.173,-138.5,427.5
7.800,-5.317,1.795,139.1,11.14,-138.7,541.1
7.810,-6.705,1.958,137.6,17.00,-136.5,558.4
7.820,-8.047,2.135,137.9,21.17,-136.2,152.7
7.830,-9.430,2.382,136.1,18.07,-134.9,211.8
7.840,-10.75,2.497,132.1,16.89,-131.0,196.9
7.850,-12.05,2.719,133.6,22.51,-131.7,398.8
7.860,-13.38,2.947,132.4,23.84,-130.3,225.8
7.870,-14.66,3.196,130.9,26.39,-128.2,282.3
7.880,-15.94,3.475,129.3,27.25,-126.4,267.4
7.890,-17.18,3.741,125.7,27.69,-122.6,280.3
7.900,-18.40,4.028,125.0,30.06,-121.4,283.6
7.910,-19.61,4.342,124.3,32.52,-120.0,332.0
7.920,-20.79,4.679,122.1,35.17,-117.0,361.4
7.930,-21.95,5.046,119.4,36.37,-113.7,323.9
7.940,-23.07,5.406,118.2,38.59,-111.7,159.7
7.950,-24.18,5.818,117.9,39.12,-111.2,223.2
7.960,-25.29,6.188,115.0,39.29,-108.1,582.8
7.970,-26.35,6.603,108.0,41.53,-99.65,331.1
7.980,-27.29,7.019,109.0,42.38,-100.4,149.0
7.990,-28.35,7.451,109.9,43.72,-100.9,288.5
8.000,-29.30,7.893,103.2,44.83,-92.96,692.8
8.010,-30.21,8.348,98.15,44.05,-87.71,456.8
8.020,-31.06,8.774,93.65,42.14,-83.63,352.7
8.030,-31.89,9.190,91.99,43.41,-81.10,278.9
8.040,-32.68,9.643,90.68,45.36,-78.52,545.2
8.050,-33.46,10.10,82.77,42.27,-71.17,424.4
8.060,-34.10,10.49,79.70,40.65,-68.56,404.3
8.070,-34.83,10.91,77.75,39.34,-67.06,118.5
8.080,-35.45,11.27,75.23,39.70,-63.90,381.3
8.090,-36.11,11.70,73.25,39.63,-61.60,468.2
8.100,-36.68,12.07,64.35,34.74,-54.17,545.6
8.110,-37.19,12.40,62.10,34.66,-51.53,220.7
8.120,-37.71,12.76,61.21,34.38,-50.64,174.6
8.130,-38.20,13.09,58.15,32.78,-48.03,578.4
8.140,-38.67,13.42,50.62,29.56,-41.09,688.1
8.150,-39.02,13.68,42.93,25.27,-34.71,496.0
8.160,-39.36,13.92,41.34,23.99,-33.67,205.7
8.170,-39.70,14.16,39.20,23.56,-31.34,225.4
8.180,-39.99,14.39,36.53,21.37,-29.63,454.7
8.190,-40.29,14.59,30.88,17.04,-25.75,320.8
8.200,-40.50,14.73,28.54,16.95,-22.96,585.7
8.210,-40.75,14.92,22.08,13.91,-17.14,593.5
8.220,-40.85,15.01,13.69,7.917,-11.16,431.1
8.230,-40.97,15.08,14.83,8.489,-12.16,62.24
8.240,-41.09,15.18,15.05,9.421,-11.73,388.2
8.250,-41.21,15.27,8.016,5.341,-5.977,627.6
8.260,-41.21,15.29,1.228,1.228,2.966E-2,444.9
8.270,-41.21,15.30,0.626,0.441,0.444,473.5
8.280,-41.20,15.30,7.578,-4.959,5.730,298.1
8.290,-41.09,15.20,8.894,-5.843,6.705,350.2
8.300,-41.07,15.18,10.71,-6.252,8.698,393.6
8.310,-40.92,15.07,19.63,-11.89,15.62,832.6
8.320,-40.75,14.94,25.85,-15.69,20.54,376.7
8.330,-40.51,14.76,28.76,-16.99,23.20,393.5
8.340,-40.29,14.60,31.53,-17.85,25.99,324.9
8.350,-39.99,14.40,36.80,-22.39,29.20,445.1
8.360,-39.71,14.16,39.44,-24.20,31.15,242.2
8.370,-39.36,13.92,42.07,-23.82,34.68,547.1
8.380,-39.01,13.68,49.03,-28.43,39.94,316.9
8.390,-38.56,13.35,50.92,-29.22,41.71,422.2
8.400,-38.18,13.09,54.00,-29.92,44.96,370.7
8.410,-37.67,12.75,61.12,-33.77,50.95,552.1
8.420,-37.16,12.42,63.31,-34.27,53.23,282.6
8.430,-36.60,12.06,67.14,-35.30,57.11,293.6
8.440,-36.02,11.71,68.92,-36.57,58.41,394.3
8.450,-35.43,11.33,74.44,-39.63,63.01,356.1
8.460,-34.76,10.92,77.33,-39.23,66.64,326.2
8.470,-34.10,10.55,79.14,-40.73,67.85,346.2
8.480,-33.40,10.11,85.19,-43.72,73.12,538.5
8.490,-32.64,9.674,89.77,-44.90,77.73,400.2
8.500,-31.85,9.208,92.73,-45.49,80.81,312.0
8.510,-31.02,8.764,94.07,-42.82,83.76,326.3
8.520,-30.17,8.351,96.66,-42.55,86.79,335.6
8.530,-29.29,7.913,100.7,-44.39,90.39,540.7
8.540,-28.36,7.464,106.5,-43.46,97.21,310.6
8.550,-27.34,7.044,106.3,-41.52,97.81,149.7
8.560,-26.41,6.633,105.9,-41.85,97.32,253.0
8.570,-25.40,6.207,111.7,-40.80,104.0,451.6
8.580,-24.33,5.817,112.3,-37.43,105.9,314.0
8.590,-23.28,5.458,114.4,-37.23,108.2,232.7
8.600,-22.16,5.073,118.0,-38.42,111.6,292.0
8.610,-21.05,4.690,119.0,-36.40,113.3,359.4
8.620,-19.90,4.345,122.2,-33.71,117.4,413.7
8.630,-18.70,4.015,123.8,-31.10,119.9,360.1
8.640,-17.50,3.723,125.5,-28.67,122.1,269.7
8.650,-16.26,3.442,127.9,-27.88,124.8,196.7
8.660,-15.00,3.165,126.7,-25.68,124.1,225.3
8.670,-13.77,2.929,128.4,-23.44,126.3,205.8
8.680,-12.48,2.696,129.6,-22.57,127.6,336.4
8.690,-11.22,2.477,127.9,-17.36,126.7,583.3
8.700,-9.946,2.349,137.0,-14.23,136.2,34.51
8.710,-8.496,2.193,132.5,-17.52,131.3,256.3
8.720,-7.319,1.998,128.1,-18.79,126.8,143.9
8.730,-5.961,1.817,135.9,-14.81,135.1,647.2
8.740,-4.616,1.702,134.0,-8.499,133.8,404.1
8.750,-3.285,1.647,133.8,-6.355,133.7,268.6
8.760,-1.943,1.575,135.2,-4.325,135.1,248.6
8.770,-0.583,1.560,134.8,-0.638,134.8,262.7
8.780,0.752,1.562,134.2,0.688,134.2,194.3
8.790,2.100,1.574,134.3,2.902,134.3,239.6
8.800,3.438,1.620,133.5,5.713,133.4,353.5
8.810,4.768,1.688,131.5,8.898,131.2,265.0
8.820,6.061,1.798,131.8,11.27,131.3,444.2
8.830,7.394,1.914,129.3,15.81,128.4,608.8
8.840,8.629,2.115,129.9,23.99,127.6,189.8
8.850,9.947,2.393,128.5,18.13,127.2,194.5
8.860,11.17,2.477,125.2,15.89,124.2,254.2
8.870,12.43,2.711,126.7,24.37,124.3,534.5
8.880,13.66,2.964,125.9,25.71,123.2,323.0
8.890,14.90,3.225,123.3,27.97,120.1,422.6
8.900,16.06,3.524,120.1,31.60,115.9,344.2
8.910,17.21,3.858,120.3,33.20,115.7,46.73
8.920,18.37,4.188,119.5,31.60,115.2,264.3
8.930,19.52,4.489,115.3,31.98,110.7,303.3
8.940,20.59,4.827,112.9,32.82,108.0,321.9
8.950,21.68,5.146,113.8,36.05,108.0,439.3
8.960,22.75,5.548,110.2,40.73,102.4,477.5
8.970,23.73,5.960,104.9,38.38,97.67,353.8
8.980,24.70,6.316,103.9,39.68,96.06,290.1
8.990,25.65,6.754,100.2,39.73,92.01,399.6
9.000,26.54,7.111,99.79,42.92,90.08,437.9
9.010,27.45,7.613,98.90,48.10,86.41,264.0
9.020,28.27,8.073,92.76,39.11,84.11,565.0
9.030,29.13,8.395,89.82,36.37,82.13,277.2
9.040,29.91,8.800,86.97,38.41,78.03,396.5
9.050,30.69,9.163,84.40,37.51,75.60,312.8
9.060,31.42,9.550,80.81,37.79,71.42,369.8
9.070,32.12,9.919,77.54,36.67,68.32,409.4
9.080,32.79,10.28,72.97,34.76,64.16,424.4
9.090,33.41,10.61,68.90,34.46,59.67,412.2
9.100,33.98,10.97,65.41,32.93,56.51,332.7
9.110,34.54,11.27,62.23,28.43,55.35,330.6
9.120,35.09,11.54,59.33,29.05,51.74,409.4
9.130,35.57,11.85,56.18,31.45,46.55,306.1
9.140,36.02,12.17,53.90,28.54,45.73,300.9
9.150,36.48,12.42,50.29,26.78,42.56,456.9
9.160,36.87,12.71,44.72,24.75,37.25,525.3
9.170,37.23,12.92,39.54,20.83,33.61,448.6
9.180,37.55,13.12,36.19,18.61,31.04,240.4
9.190,37.85,13.29,34.88,18.99,29.26,363.1
9.200,38.13,13.50,30.19,17.91,24.30,385.0
9.210,38.34,13.65,25.81,14.61,21.28,437.7
9.220,38.56,13.79,22.79,13.78,18.14,383.1
9.230,38.70,13.93,17.54,11.47,13.28,366.8
9.240,38.82,14.02,15.53,8.536,12.98,354.8
9.250,38.96,14.10,11.62,5.703,10.13,379.4
9.260,39.02,14.14,6.987,4.261,5.538,486.7
9.270,39.07,14.18,3.508,-0.166,3.504,321.0
9.280,39.09,14.13,2.986,-2.491,1.646,333.5
9.290,39.10,14.13,2.816,0.690,-2.730,293.4
9.300,39.04,14.15,6.333,-4.111,-4.817,465.9
9.310,39.01,14.05,11.10,-9.064,-6.406,499.8
9.320,38.91,13.97,16.02,-6.580,-14.61,490.5
9.330,38.71,13.92,20.45,-11.50,-16.92,478.5
9.340,38.57,13.74,24.65,-16.45,-18.36,373.2
9.350,38.35,13.59,28.24,-15.14,-23.84,309.8
9.360,38.10,13.43,30.12,-17.88,-24.23,308.3
9.370,37.86,13.23,33.97,-19.65,-27.70,450.1
9.380,37.54,13.04,39.17,-19.36,-34.04,399.2
9.390,37.18,12.84,41.82,-22.82,-35.05,365.2
9.400,36.84,12.59,45.80,-23.22,-39.48,368.5
9.410,36.39,12.38,49.60,-26.35,-42.02,352.4
9.420,36.00,12.06,52.01,-31.04,-41.73,359.8
9.430,35.56,11.76,56.68,-28.28,-49.12,452.0
9.440,35.02,11.49,60.38,-30.68,-52.00,337.7
9.450,34.52,11.15,62.82,-33.76,-52.98,320.5
9.460,33.96,10.82,66.72,-34.35,-57.20,443.3
9.470,33.37,10.46,69.88,-33.47,-61.35,403.9
9.480,32.73,10.15,74.37,-36.28,-64.92,377.4
9.490,32.07,9.733,78.11,-38.98,-67.68,301.8
9.500,31.38,9.368,79.00,-34.36,-71.14,335.5
9.510,30.65,9.046,82.99,-37.10,-74.24,403.8
9.520,29.89,8.626,87.79,-40.93,-77.66,505.6
9.530,29.10,8.227,85.74,-29.54,-80.49,454.5
9.540,28.28,8.035,93.39,-36.16,-86.11,858.1
9.550,27.38,7.504,103.3,-51.41,-89.63,535.8
9.560,26.49,7.007,98.08,-44.48,-87.42,475.6
9.570,25.63,6.614,97.92,-40.49,-89.16,403.1
9.580,24.71,6.197,100.5,-39.08,-92.54,318.3
9.590,23.78,5.833,102.4,-38.31,-94.92,495.6
9.600,22.81,5.431,109.4,-39.30,-102.1,605.9
9.610,21.74,5.047,114.7,-38.17,-108.2,595.1
9.620,20.65,4.668,113.9,-31.46,-109.5,413.9
9.630,19.55,4.417,115.1,-28.40,-111.5,68.02
9.640,18.42,4.100,116.2,-32.89,-111.4,154.7
9.650,17.32,3.760,116.5,-31.18,-112.3,212.4
9.660,16.17,3.476,119.4,-29.35,-115.7,464.4
9.670,15.00,3.173,121.9,-26.49,-119.0,318.3
9.680,13.79,2.946,122.5,-23.01,-120.3,311.8
9.690,12.60,2.712,123.5,-22.13,-121.5,379.5
9.700,11.36,2.504,122.9,-15.75,-121.9,495.9
9.710,10.16,2.397,127.2,-13.28,-126.5,136.2
9.720,8.831,2.238,128.0,-18.89,-126.6,150.4
9.730,7.628,2.019,125.2,-17.33,-124.0,309.7
9.740,6.351,1.892,127.3,-11.47,-126.8,429.2
9.750,5.092,1.790,127.0,-9.814,-126.6,230.2
9.760,3.819,1.695,128.0,-7.318,-127.7,299.8
9.770,2.537,1.644,126.7,-3.494,-126.6,213.1
9.780,1.286,1.625,127.2,-2.761,-127.1,90.57
9.790,-6.007E-3,1.589,128.0,-2.396,-127.9,93.99
9.800,-1.272,1.578,126.3,-0.474,-126.3,251.9
9.810,-2.532,1.579,127.0,2.247,-127.0,216.7
9.820,-3.812,1.622,127.9,4.210,-127.9,348.3
9.830,-5.090,1.663,127.8,8.249,-127.5,616.3
9.840,-6.362,1.787,127.1,16.94,-126.0,869.5
9.850,-7.609,2.002,123.0,24.33,-120.5,46.82
9.860,-8.772,2.274,124.4,18.23,-123.0,504.9
9.870,-10.07,2.367,121.5,11.52,-120.9,147.0
9.880,-11.19,2.504,119.0,16.93,-117.8,519.1
9.890,-12.42,2.705,122.4,21.59,-120.5,308.9
9.900,-13.60,2.936,119.4,23.02,-117.1,267.5
9.910,-14.77,3.166,118.3,23.37,-116.0,122.0
9.920,-15.92,3.404,117.2,23.87,-114.8,155.3
9.930,-17.06,3.643,116.7,25.47,-113.9,295.2
9.940,-18.20,3.913,113.6,27.38,-110.2,385.7
9.950,-19.27,4.191,109.9,28.57,-106.1,321.0
9.960,-20.32,4.484,109.8,31.09,-105.3,278.2
9.970,-21.37,4.813,107.6,32.67,-102.5,357.5
9.980,-22.37,5.138,103.6,33.28,-98.09,244.9
9.990,-23.34,5.478,103.1,33.73,-97.45,128.5
10.000,-24.32,5.813,103.0,34.70,-96.95,220.4